Product,test_id,log2(fold_change)
"Probable carbonic anhydrase, Cah",SMa0045,-1.16478
putative D-alanine aminotransferase,SMa0093,0.828262
hypothetical protein,SMa0101,0.888508
hypothetical protein,SMa0226,-0.863142
hypothetical protein,SMa0291,-1.56003
hypothetical protein,SMa0292,-1.18225
response regulator,SMa0293,-0.915015
putative LysR-type regulator,SMa0355,-0.988609
putative zinc-binding,SMa0400,-1.23637
putative FMN-dependent,SMa0404,-1.25728
hypothetical protein,SMa0439,-1.28242
hypothetical protein,SMa0580,1.76368
"Nitrate transport ATP binding protein, probable",SMa0581,1.93647
"NrtB, Nitrate transport permease protein",SMa0583,2.16639
"NrtA-type periplasmic nitrate transport binding protein, probable",SMa0585,2.29027
hypothetical protein,SMa0604,-1.08281
hypothetical protein,SMa0630,-1.56236
hypothetical protein,SMa0631,-2.26648
hypothetical protein,SMa0633,-2.04162
hypothetical protein,SMa0636,-2.8418
hypothetical protein,SMa0661,-2.01223
hypothetical protein,SMa0667,-1.90166
hypothetical protein,SMa0669,-1.63471
"decarboxylase, probable (lysine, ornithine, arginine)",SMa0682,-2.07325
probable transport protein,SMa0684,-1.09831
hypothetical protein,SMa0690,-1.8342
arginine deiminase,SMa0693,-2.24244
chaperonin GroEL,SMa0744,-3.27461
co-chaperonin GroES,SMa0745,-3.2225
putative mucR family transcriptional regulatory protein,SMa0748,-0.801092
FixT2 transcription regulator,SMa0760,-2.0945
transcriptional regulator FixK,SMa0762,-2.11242
hypothetical protein,SMa0763,-1.86613
FixN2 cytochrome c oxidase polypeptide I,SMa0765,-2.81834
FixO2 cytochrome c oxidase,SMa0766,-2.07555
FixP2 cytochrome c oxidase,SMa0769,-1.13898
FixU nitrogen fixation protein,SMa0810,-1.99827
FdxN ferredoxin,SMa0811,-2.46703
NifB FeMo cofactor biosynthesis protein,SMa0814,-2.65535
NifA transcriptional activator,SMa0815,-1.95166
SyrM transcriptional regulator,SMa0849,0.804986
hypothetical protein,SMa1057,-1.05005
TspO Tryptophan rich sensory protein homologue,SMa1079,-1.63036
hypothetical protein,SMa1081,-2.5044
hypothetical protein,SMa1082,-2.73556
hypothetical protein,SMa1086,-2.7658
Putative cation transport P-type ATPase,SMa1087,-2.29964
hypothetical protein,SMa1092,-2.78106
hypothetical protein,SMa1093,-2.58356
hypothetical protein,SMa1095,-2.87292
hypothetical protein,SMa1100,-2.76139
probable HspC2 heat shock protein,SMa1118,-2.76064
"ABC transporter, ATP binding protein, hypothetical",SMa1120,-2.41777
hypothetical protein,SMa1126,-2.96313
DegP4 protease like protein,SMa1128,-2.93406
hypothetical protein,SMa1131,-2.48709
hypothetical protein,SMa1132,-2.57992
hypothetical protein,SMa1134,-2.75479
hypothetical protein,SMa1136,-2.508
hypothetical protein,SMa1146,-2.19809
hypothetical protein,SMa1147,-2.70834
hypothetical protein,SMa1149,-2.55021
hypothetical protein,SMa1151,-2.1471
hypothetical protein,SMa1153,-2.73788
hypothetical protein,SMa1154,-2.50365
"Cation transport P-type ATPase, hypothetical",SMa1155,-1.27299
probable alcohol,SMa1156,-2.55913
hypothetical protein,SMa1158,-2.41121
Putative cation transport P-type ATPase,SMa1163,-1.95037
Putative hydrolase protein,SMa1166,-2.28352
hypothetical protein,SMa1168,-2.28101
hypothetical protein,SMa1169,-2.60751
putative CycB2 cytochrome c552,SMa1170,-2.41392
hypothetical protein,SMa1171,-1.61015
hypothetical protein,SMa1176,-2.48031
hypothetical protein,SMa1178,-2.40301
NosR Regulatory protein for N2O reductase,SMa1179,-2.61133
hypothetical protein,SMa1195,-2.43532
hypothetical protein,SMa1200,-2.46755
hypothetical protein,SMa1201,-2.27455
FixK-like regulatory protein,SMa1207,-2.51947
FixG Iron sulfur membrane protein,SMa1211,-2.76155
FixP1 Di-heme cytochrome c,SMa1213,-2.77651
FixQ1 cbb3-type cytochrome oxidase,SMa1214,-3.29317
FixO1 c-type cytochrome,SMa1216,-3.49631
FixN1 Heme b / copper cytochrome c oxidase subunit,SMa1220,-2.92016
transcriptional regulator FixK,SMa1225,-1.75263
FixT1 Inhibitor of FixL autophosphorylation,SMa1226,-1.79631
hypothetical protein,SMa1231,-2.79014
"NapC membrane protein, e-donor to periplasmic nitrate reductase",SMa1232,-2.14262
NapE component of periplasmic nitrate reductase,SMa1241,-1.88024
Azu1 pseudoazurin (blue copper protein),SMa1243,-2.20746
putative NirK Cu-nitrite reductase,SMa1250,-0.898776
hypothetical protein,SMa1252,-1.98583
hypothetical protein,SMa1253,-1.62472
hypothetical protein,SMa1254,-1.42448
hypothetical protein,SMa1259,-2.35006
hypothetical protein,SMa1261,-2.22069
coproporphyrinogen III oxidase,SMa1266,-2.62787
NorB nitric oxide reductase,SMa1273,-1.18375
NorC nitric oxide reductase,SMa1276,-1.7196
NorE protein involved in nitric oxide reduction,SMa1279,-1.97318
Probable NnrU protein,SMa1283,-2.47225
hypothetical protein,SMa1288,-1.54301
hypothetical protein,SMa1289,-2.58381
hypothetical protein,SMa1291,-2.312
hypothetical protein,SMa1294,-1.65782
AdhA1 alcohol,SMa1296,-2.05987
"putative ABC transporter, periplasmic solute-binding protein",SMa1379,-0.835616
hypothetical protein,SMa1381,-0.968173
hypothetical protein,SMa1397,-0.851756
"putative ABC transporter, periplasmic solute-binding protein",SMa1438,-1.01012
putative 5-dehydro-4-deoxyglucarate dehydratase,SMa1440,-1.04988
HYPOTHETICAL MUCR FAMILY TRANSCRIPTIONAL REGULATORY PROTEIN IN SYRB 5'REGION,SMa1705,-1.32411
hypothetical protein,SMa2063,-0.938601
"probable extracellular solute-binding protein, family 5",SMa2075,1.06913
probable MrcA2 penicillin-binding protein,SMa2294,1.51872
putative ROK family transcriptional regulator,SMa2303,-0.91717
putative transmembrane transport protein,SMa2337,2.1623
putative siderophore biosynthesis protein,SMa2339,2.44856
putative LysR-family transcriptional regulator,SMa2341,1.13657
diaminobutyrate--2-oxoglutarate aminotransferase,SMa2400,3.24486
"RhsB L-2,4-diaminobutyrate decarboxylase",SMa2402,3.01889
RhbC rhizobactin siderophore biosynthesis protein,SMa2404,2.79036
RhbE Rhizobactin siderophore biosynthesis protein,SMa2408,2.29903
RhbF Rhizobactin siderophore biosynthesis protein RhsF,SMa2410,2.42845
RhtA Rhizobactin receptor precursor,SMa2414,3.1893
hypothetical protein,SMb20032,0.786276
hypothetical sugar transferase protein,SMb20117,-1.08696
hypothetical protein,SMb20127,-1.0189
putative deaminase protein,SMb20128,-1.99347
putative phosphoribulokinase protein,SMb20201,-0.89215
putative adenylate cyclase protein,SMb20300,-1.24712
putative dihydroxyacetone kinase protein,SMb20313,-0.887482
putative ABC transporter periplasmic sugar-binding protein,SMb20316,-0.956871
putative sugar ABC transporter permease protein,SMb20318,-0.80681
probable trehalosemaltose-binding protein,SMb20325,-1.17816
probable trehalosemaltose transporter ATP-binding protein,SMb20328,-0.793779
hypothetical protein,SMb20359,-1.37958
hypothetical protein,SMb20360,-1.58356
putative amino acid ABC transporter ATP-binding protein,SMb20427,-0.813803
putative ABC transporter amino acid-binding protein,SMb20428,-1.06418
putative amino acid ABC transporter permease protein,SMb20429,-0.977402
putative nitrate transporter protein,SMb20436,3.28138
hypothetical protein,SMb20551,-1.30169
"3-carboxy-cis,cis-muconate cycloisomerase",SMb20575,-0.754782
putative ureashort-chain amide or branched-chain amino acid uptake ABC transporter ATP-binding protein,SMb20602,-6.56889
putative ureashort-chain amide or branched-chain amino acid uptake ABC transporter permease protein,SMb20603,-6.66181
"putative ureashort-chain amide or branched-chain amino acid uptake ABC transporter permease protein, possibly fusion protein",SMb20604,-6.91711
hypothetical protein,SMb20647,0.951136
hypothetical protein,SMb20668,-1.25007
"conserved hypothetical protein, possibly hydroxypyruvate isomerase",SMb20669,-0.913756
hypothetical protein,SMb20670,-0.968388
putative adenylate cyclase protein,SMb20707,-0.793669
hypothetical protein,SMb20729,0.851451
putative glycosyltransferase protein,SMb20748,-1.11669
putative C-P (carbon-phosphorus) lyase component protein,SMb20760,0.959118
hypothetical protein,SMb20769,-0.823622
hypothetical protein,SMb20770,-1.2783
hypothetical protein,SMb20771,-1.33436
"putative protein involved in assembly, operation or regulation of an export machinery for a cell surface saccharide",SMb20809,-1.02852
putative secreted calcium-binding protein,SMb20829,-0.931381
hypothetical protein,SMb20876,0.98478
hypothetical protein,SMb20909,1.30984
hypothetical protein,SMb20910,1.18905
"putative transport protein, similar to Wzx",SMb20950,-0.888695
succinyltransferase protein,SMb20954,-1.78352
"endo-beta-1,3-1,4-glycanase protein",SMb20955,-1.85757
hypothetical protein,SMb20983,2.4393
"putative nitrite reductase [NAD(P)H], large subunit protein",SMb20984,2.87356
"putative nitrite reductase [NAD(P)H], small subunit protein",SMb20985,2.39245
"putative nitrate reductase, large subunit protein",SMb20986,1.05304
putative siroheme synthetase protein,SMb20987,2.78577
hypothetical protein,SMb20988,1.36673
hypothetical protein,SMb20998,-1.58059
"putative transport protein, essential for bacteroid development protein",SMb20999,-1.48085
hypothetical protein,SMb21025,-0.941532
hypothetical exopeptide protein,SMb21026,-0.988535
putative integral membrane transporter protein,SMb21162,-1.42847
urocanate hydratase,SMb21163,-1.67725
putative formiminoglutamase protein,SMb21164,-1.3677
phosphate uptake ABC transporter permease protein,SMb21174,2.12411
phosphate uptake ABC transporter permease protein,SMb21175,2.19521
phosphate uptake ABC transporter periplasmic solute-binding protein precursor,SMb21176,2.03467
phosphate uptake ABC transporter ATP-binding protein,SMb21177,1.8778
heat shock protein 90,SMb21183,-1.09172
"putative acyltransferase, possibly surface-saccharide specific acetyltransferase protein",SMb21188,-1.77786
putative glycosyltransferase protein,SMb21189,-1.55207
putative glycosyltransferase protein,SMb21190,-1.49444
"putative surface saccharide exporting ABC transporter protein, consisting of ATP-binding and membrane-spanning domains",SMb21191,-1.46468
"conserved hypothetical protein, possibly membrane-associated",SMb21247,-0.797864
putative spermidineputrescine ABC transporter periplasmic solute-binding protein precursor,SMb21273,1.73093
putative spermidineputrescine ABC transporter permeasee protein,SMb21274,1.60463
putative spermidineputrescine ABC transporter ATP-binding protein,SMb21276,1.58454
putative inosine-uridine preferring nucleoside hydrolase protein,SMb21277,1.53979
probable adenine deaminase protein,SMb21278,1.08075
probable xanthine dehydrogenase protein,SMb21286,0.791845
"putative small heat shock protein, hsp20 family",SMb21294,-1.63237
"putative small heat shock protein, hsp20 family",SMb21295,-0.867968
hypothetical protein,SMb21296,-1.61292
hypothetical protein,SMb21379,-1.35231
hypothetical protein,SMb21395,-0.973741
hypothetical calcium binding protein,SMb21402,-1.19477
N-carbamoyl-L-amino acid amidohydrolase,SMb21435,-1.00234
hypothetical protein,SMb21440,-1.81976
hypothetical protein,SMb21467,-1.1689
putative cytochrome o ubiquinol oxidase chain II protein,SMb21487,1.51734
putative cytochrome o ubiquinol oxidase chain I protein,SMb21488,1.2194
hypothetical protein,SMb21491,-1.30389
"putative exported sulfurtransferase, Rhodanese protein",SMb21549,0.943888
hypothetical protein,SMb21551,0.911923
hypothetical protein,SMb21565,-1.13395
chaperonin GroEL,SMb21566,-2.7185
hypothetical protein,SMb21567,-2.77703
hypothetical protein,SMb21599,1.10773
putative exported beta-lactamase protein,SMb21600,1.42823
putative phenylacetic acid degradation protein,SMb21640,1.14555
alpha-galactosidase (melibiase) protein,SMb21648,-0.784229
glucosyltransferase protein,SMb21690,-1.31964
putative nitrilotriacetate monooxygenase component A protein,SMb21691,1.0932
putative ureashort-chain amide or branched-chain amino acid uptake ABC transporter ATP-binding protein,SMb21707,-6.3133
hypothetical protein,SMc00062,-1.51101
hypothetical protein,SMc00063,-1.40502
hypothetical protein,SMc00064,-0.847726
CONSERVED HYPOTHETICAL SIGNAL PEPTIDE PROTEIN,SMc00070,-1.12954
HYPOTHETICAL/UNKNOWN PROTEIN,SMc00084,-1.1233
PUTATIVE SULFATE ADENYLATE TRANSFERASE CYSTEINE BIOSYNTHESIS PROTEIN,SMc00090,1.3359
sulfate adenylyltransferase subunit 2,SMc00091,1.40808
"PROBABLE PHOSPHOADENOSINE PHOSPHOSULFATE REDUCTASE PAPS REDUCTASE, THIOREDOXIN DEPENDENT PADOPS REDUCTASE 3'-PHOSPHOADENYLYLSULFATE SULFOTRANSFERASE CYSTEINE BIOSYNTHESIS PROTEIN",SMc00092,1.03773
HYPOTHETICAL/UNKNOWN PROTEIN,SMc00096,-1.35486
hypothetical protein,SMc00137,1.02416
hypothetical protein,SMc00147,1.21754
hypothetical protein,SMc00171,0.775184
PUTATIVE ABC TRANSPORTER ATP-BINDING TRANSMEMBRANE PROTEIN,SMc00186,-1.51059
hypothetical protein,SMc00239,-0.862318
HYPOTHETICAL SIGNAL PEPTIDE PROTEIN,SMc00281,-1.06665
PUTATIVE TRANSCRIPTION REGULATOR PROTEIN,SMc00283,-0.834846
HYPOTHETICAL HEMOLYSIN-TYPE CALCIUM-BINDING PROTEIN,SMc00286,-0.894229
hypothetical protein,SMc00404,-1.13205
50S ribosomal protein L9,SMc00565,1.70636
hypothetical protein,SMc00566,1.08347
30S ribosomal protein S18,SMc00567,1.20116
30S ribosomal protein S6,SMc00568,1.37306
HYPOTHETICAL/UNKNOWN SIGNAL PEPTIDE PROTEIN,SMc00591,-0.796576
hypothetical protein,SMc00611,-4.25104
hypothetical protein,SMc00612,-3.84774
HYPOTHETICAL SIGNAL PEPTIDE PROTEIN,SMc00620,1.35136
phosphoserine aminotransferase,SMc00640,1.0265
PUTATIVE D-3-PHOSPHOGLYCERATE DEHYDROGENASE PROTEIN,SMc00641,1.13402
"HYPOTHETICAL, TRANSMEMBRANE PROTEIN",SMc00668,-2.03716
HISTIDINE-BINDING PERIPLASMIC SIGNAL PEPTIDE PROTEIN,SMc00672,-1.83742
atrazine chlorohydrolase,SMc00673,-1.82388
hypothetical protein,SMc00712,-0.845668
hypothetical protein,SMc00777,-1.69985
hypothetical protein,SMc00801,-1.75818
hypothetical protein,SMc00830,0.79377
PUTATIVE PROTEASE PROTEIN,SMc00857,-0.874166
co-chaperonin GroES,SMc00912,-3.41586
chaperonin GroEL,SMc00913,-3.433
PUTATIVE ACYL-COA DEHYDROGENASE PROTEIN,SMc00977,0.775426
hypothetical protein,SMc00978,1.21334
hypothetical protein,SMc00986,0.829523
hypothetical protein,SMc01016,-1.12471
PUTATIVE ACETYLTRANSFERASE PROTEIN,SMc01017,-3.11646
PROBABLE SIROHEME SYNTHASE PROTEIN,SMc01053,1.18622
hypothetical protein,SMc01054,1.44488
PUTATIVE TRANSCRIPTION REGULATOR PROTEIN,SMc01092,-1.40503
PROBABLE MULTIDRUG-EFFLUX SYSTEM TRANSMEMBRANE PROTEIN,SMc01095,-0.863476
PROBABLE SMALL HEAT SHOCK PROTEIN,SMc01106,-1.43928
hypothetical protein,SMc01107,-1.06157
S-adenosylmethionine synthetase,SMc01109,1.3051
PROBABLE ALANINE DEHYDROGENASE OXIDOREDUCTASE PROTEIN,SMc01169,1.64193
PUTATIVE OXIDOREDUCTASE PROTEIN,SMc01175,-0.836859
hypothetical protein,SMc01180,-1.02431
50S ribosomal protein L30,SMc01291,0.925512
hypothetical protein,SMc01405,1.2396
hypothetical protein,SMc01456,-1.52029
PUTATIVE TRANSPORT TRANSMEMBRANE PROTEIN,SMc01457,-2.90024
PUTATIVE TRANSPORT PROTEIN,SMc01458,-2.92128
hypothetical protein,SMc01464,-1.01945
PUTATIVE CREA PROTEIN,SMc01465,-1.34011
hypothetical protein,SMc01488,1.62537
PUTATIVE HEMIN TRANSPORT PROTEIN,SMc01513,0.865188
hypothetical protein,SMc01515,0.99578
hypothetical protein,SMc01517,1.09578
hypothetical protein,SMc01540,-0.765528
hypothetical protein,SMc01542,-1.23921
hypothetical protein,SMc01559,-0.864111
hypothetical protein,SMc01560,-1.0372
hypothetical protein,SMc01580,-1.62481
hypothetical protein,SMc01581,-1.39007
PUTATIVE PERMEASE ABC TRANSPORTER PROTEIN,SMc01627,-0.969441
PUTATIVE PERIPLASMIC BINDING ABC TRANSPORTER PROTEIN,SMc01628,-1.20407
PUTATIVE ERY OPERON REPRESSOR TRANSCRIPTION REGULATOR PROTEIN,SMc01629,-0.805378
PUTATIVE ABC TRANSPORTER PROTEIN,SMc01652,1.07948
PUTATIVE FERRICHROME-IRON RECEPTOR PRECURSOR PROTEIN,SMc01657,1.08668
PUTATIVE TRANSPORT PROTEIN,SMc01658,0.749677
hypothetical protein,SMc01747,1.31973
hypothetical protein,SMc01759,-0.89011
hypothetical protein,SMc01774,-4.03483
dihydropyrimidine dehydrogenase,SMc01815,-1.00345
PUTATIVE METHYLTRANSFERASE TRANSCRIPTION REGULATOR PROTEIN,SMc01842,1.57234
"PROBABLE 5,10-METHYLENETETRAHYDROFOLATE REDUCTASE OXIDOREDUCTASE PROTEIN",SMc01843,2.09218
hypothetical protein,SMc01848,1.4216
hypothetical protein,SMc01855,-1.26414
PUTATIVE TRANSPORT TRANSMEMBRANE PROTEIN,SMc01869,0.799744
hypothetical protein,SMc01907,1.40303
PUTATIVE OXIDOREDUCTASE PROTEIN,SMc02034,-0.755385
hypothetical protein,SMc02052,0.81018
elongation factor Ts,SMc02100,1.33589
30S ribosomal protein S2,SMc02101,1.23428
hypothetical protein,SMc02123,1.22683
PUTATIVE NITRITE REDUCTASE PROTEIN,SMc02124,1.38137
PHOSPHATE REGULON TRANSCRIPTIONAL REGULATORY PROTEIN,SMc02140,0.840915
PROBABLE PHOSPHATE TRANSPORT SYSTEM TRANSCRIPTIONAL REGULATOR PROTEIN,SMc02141,0.809948
PUTATIVE PHOSPHATE-BINDING PERIPLASMIC PROTEIN,SMc02146,1.28461
hypothetical protein,SMc02150,0.980101
hypothetical protein,SMc02221,-0.78051
PUTATIVE ACYL-COA DEHYDROGENASE PROTEIN,SMc02229,1.37767
hypothetical protein,SMc02242,-0.945316
hypothetical protein,SMc02266,-1.61191
HYPOTHETICAL UNKNOWN TRANSMEMBRANE PROTEIN,SMc02278,-0.864588
HYPOTHETICAL SIGNAL PEPTIDE PROTEIN,SMc02317,-0.798068
PUTATIVE TRANSPORT TRANSMEMBRANE PROTEIN,SMc02343,1.43236
PUTATIVE PERIPLASMIC BINDING PROTEIN,SMc02344,1.60217
PUTATIVE TRANSPORT SYSTEM PERMEASE ABC TRANSPORTER PROTEIN,SMc02345,1.29509
PUTATIVE ATP-BINDING ABC TRANSPORTER PROTEIN,SMc02346,1.37339
PUTATIVE FERREDOXIN ASFB IRON-SULFUR PROTEIN,SMc02347,1.6854
PUTATIVE OXIDOREDUCTASE PROTEIN,SMc02349,1.17877
hypothetical protein,SMc02350,1.55791
PUTATIVE GLUTAMINE SYNTHETASE PROTEIN,SMc02352,-1.32859
hypothetical protein,SMc02353,-1.14543
hypothetical protein,SMc02355,-1.17302
PUTATIVE BRANCHED CHAIN AMINO ACID BINDING PERIPLASMIC ABC TRANSPORTER PROTEIN,SMc02356,-1.3109
PUTATIVE HIGH-AFFINITY BRANCHED-CHAIN AMINO ACID TRANSPORT ATP-BINDING ABC TRANSPORTER PROTEIN,SMc02357,-1.24549
PUTATIVE HIGH-AFFINITY BRANCHED-CHAIN AMINO ACID TRANSPORT PERMEASE ABC TRANSPORTER PROTEIN,SMc02359,-0.962388
PROTEASE PRECURSOR PROTEIN,SMc02365,-5.16298
PUTATIVE TRANSCRIPTION REGULATOR PROTEIN,SMc02366,-3.52887
PUTATIVE SENSOR HISTIDINE KINASE TRANSMEMBRANE PROTEIN,SMc02367,-3.6467
PUTATIVE GLUTAMATE-AMMONIA-LIGASE ADENYLYLTRANSFERASE PROTEIN,SMc02368,-2.4882
PUTATIVE TRANSPORT TRANSMEMBRANE PROTEIN,SMc02372,0.879518
hypothetical protein,SMc02382,-1.20625
PUTATIVE GLUTATHIONE S-TRANSFERASE PROTEIN,SMc02390,-0.974101
hypothetical protein,SMc02401,-1.34644
tRNA-Ser-GCT,SMc02409,-1.24736
hypothetical protein,SMc02412,-0.98646
PUTATIVE AMINOTRANSFERASE PROTEIN,SMc02413,-0.787264
PROBABLE ATP-DEPENDENT PROTEASE (HEAT SHOCK PROTEIN),SMc02433,-2.7715
hypothetical protein,SMc02447,-1.10475
HYPOTHETICAL UNKNOWN PROTEIN,SMc02552,-0.818574
TRANSCRIPTIONAL REGULATORY PROTEIN,SMc02560,-1.43132
phosphoenolpyruvate carboxykinase,SMc02562,1.77195
ATP-dependent protease ATP-binding subunit,SMc02577,-1.38874
hypothetical protein,SMc02582,0.839542
PROBABLE BIFUNCTIONAL PROTEIN : METHYLENETETRAHYDROFOLATE DEHYDROGENASE ; METHENYLTETRAHYDROFOLATE CYCLOHYDROLASE,SMc02604,-2.72212
PUTATIVE SARCOSINE OXIDASE GAMMA SUBUNIT PROTEIN,SMc02605,-3.4302
PUTATIVE SARCOSINE OXIDASE ALPHA SUBUNIT TRANSMEMBRANE PROTEIN,SMc02606,-3.48434
SARCOSINE OXIDASE BETA SUBUNIT PROTEIN,SMc02608,-3.15132
HYPOTHETICAL SIGNAL PEPTIDE PROTEIN,SMc02615,-1.20447
hypothetical protein,SMc02634,1.52375
hypothetical protein,SMc02638,-1.11971
50S ribosomal protein L25,SMc02692,1.14132
HYPOTHETICAL/UNKNOWN PROTEIN,SMc02718,0.828099
hypothetical protein,SMc02727,-1.23552
S-adenosyl-L-homocysteine hydrolase,SMc02755,1.909
hypothetical protein,SMc02769,-1.39327
PUTATIVE ZINC-TYPE ALCOHOL DEHYDROGENASE PROTEIN,SMc02771,-1.19096
PUTATIVE SUGAR ABC TRANSPORTER PERMEASE PROTEIN,SMc02772,-1.11238
PUTATIVE ABC TRANSPORTER ATP-BINDING PROTEIN,SMc02773,-1.17327
PUTATIVE ABC TRANSPORTER PERIPLASMIC BINDING PROTEIN,SMc02774,-1.04373
PUTATIVE L-FUCOSE DEHYDROGENASE (D-THREO ALDOSE 1-DEHYDROGENASE) PROTEIN,SMc02775,-1.32287
PUTATIVE ALTRONATE HYDROLASE PROTEIN,SMc02776,-1.58283
penicillin-insensitive murein endopeptidase,SMc02833,-0.961026
molecular chaperone DnaK,SMc02857,-1.33372
hypothetical protein,SMc02874,0.967611
PUTATIVE TRANSMEMBRANE PROTEIN,SMc02882,-1.19729
hypothetical protein,SMc02900,1.14327
tRNA-Ser-GGA,SMc02915,-1.46102
hypothetical protein,SMc02982,-1.29537
flagellar M-ring protein,SMc03014,0.785742
flagellar motor protein,SMc03019,0.786687
hypothetical protein,SMc03023,0.774599
FLAGELLAR TRANSMEMBRANE PROTEIN,SMc03035,1.0007
FLAGELLIN PROTEIN,SMc03040,0.921496
6-phosphogluconolactonase,SMc03069,-1.22823
HYPOTHETICAL CALCIUM-BINDING PROTEIN,SMc03108,-1.28677
"PROBABLE 5-METHYLTETRAHYDROFOLATE--HOMOCYSTEINE METHYLTRANSFERASE (METHIONINE SYNTHASE, VITAMIN-B12 DEPENDENT ISOZYME) PROTEIN",SMc03112,2.18322
PUTATIVE PERIPLASMIC BINDING ABC TRANSPORTER PROTEIN,SMc03124,1.39685
PUTATIVE TRANSPORT SYSTEM ATP-BINDING ABC TRANSPORTER PROTEIN,SMc03125,1.34367
PUTATIVE TRANSPORT SYSTEM PERMEASE ABC TRANSPORTER PROTEIN,SMc03128,1.08923
hypothetical protein,SMc03129,1.4353
hypothetical protein,SMc03152,-1.05986
PUTATIVE OUTER MEMBRANE LIPOPROTEIN TRANSMEMBRANE,SMc03157,1.23353
PUTATIVE OXIDOREDUCTASE PROTEIN,SMc03161,-0.82031
PUTATIVE MULTIDRUG EFFLUX SYSTEM PROTEIN,SMc03167,-0.862857
PUTATIVE MULTIDRUG EFFLUX SYSTEM PROTEIN,SMc03168,-1.03619
"homogentisate 1,2-dioxygenase",SMc03208,-0.994374
PUTATIVE TRANSCRIPTION REGULATOR PROTEIN,SMc03209,-0.828908
hypothetical protein,SMc03251,-1.62802
gamma-glutamyl kinase,SMc03252,-2.79302
PUTATIVE L-PROLINE 3-HYDROXYLASE PROTEIN,SMc03253,-1.69324
HYPOTHETICAL/UNKNOWN TRANSMEMBRANE PROTEIN,SMc03794,-1.18499
hypothetical protein,SMc03802,-0.791385
hypothetical protein,SMc03803,-0.78978
PUTATIVE AMINO ACID-BINDING PERIPLASMIC ABC TRANSPORTER PROTEIN,SMc03891,0.9903
PROBABLE FRUCTOSE-BISPHOSPHATE ALDOLASE CLASS I PROTEIN,SMc03983,1.33107
PROBABLE HEAT SHOCK PROTEIN,SMc04040,-3.87101
heat shock protein HtpX,SMc04091,-0.882859
hypothetical protein,SMc04173,-0.904907
hypothetical protein,SMc04188,-0.9385
PUTATIVE TRANSMEMBRANE PROTEIN,SMc04202,-1.13187
HYPOTHETICAL TRANSMEMBRANE SIGNAL PEPTIDE PROTEIN,SMc04246,-3.57257
hypothetical protein,SMc04267,-1.24257
HYPOTHETICAL SIGNAL PEPTIDE PROTEIN,SMc04276,-1.21737
PROBABLE FERRIC IRON TRANSPORT SYSTEM PERMEASE PROTEIN,SMc04316,1.44176
IRON-BINDING PERIPLASMIC PROTEIN,SMc04317,1.59518
methionine synthase I,SMc04325,1.92273
HYPOTHETICAL LIPOPROTEIN SIGNAL PEPTIDE,SMc04328,-0.877326
PUTATIVE MULTIDRUG EFFLUX SYSTEM TRANSMEMBRANE PROTEIN,SMc04350,-3.70984
PROBABLE TRANSMEMBRANE ATP-BINDING ABC TRANSPORTER PROTEIN,SMc04351,-3.07545
PUTATIVE ACYL-COA TRANSFERASE PROTEIN,SMc04399,-1.81009
hypothetical protein,SMc04402,-1.2792
hypothetical protein,SMc04409,0.761047
50S ribosomal protein L34,SMc04434,0.803051
PUTATIVE NADH DEHYDROGENASE TRANSMEMBRANE PROTEIN,SMc04452,1.19137
RF00169,SMc_R0063,-0.999958
