Product,test_id,log2(fold_change)
possible protease,SMa0034,-0.549754
chaperonin GroEL,SMa0124,0.763
co-chaperonin GroES,SMa0125,0.864871
glutamate dehydrogenase,SMa0228,-0.649138
hypothetical protein,SMa0244,-0.668046
hypothetical protein,SMa0247,-0.622508
hypothetical protein,SMa0252,-0.620888
hypothetical protein,SMa0291,0.965492
response regulator,SMa0293,0.834174
putative ABC transporter,SMa0298,0.612817
"putative ABC transporter, periplasmic solute-binding protein, family 5",SMa0302,0.671745
hypothetical protein,SMa0439,0.633706
hypothetical protein,SMa0630,1.66507
hypothetical protein,SMa0631,1.62486
hypothetical protein,SMa0633,1.3628
hypothetical protein,SMa0636,1.34111
hypothetical protein,SMa0661,1.49481
hypothetical protein,SMa0664,0.782995
hypothetical protein,SMa0667,1.5518
hypothetical protein,SMa0669,1.6998
probable regulatory protein,SMa0670,0.994275
"putrescine/ornithine antiport transport protein, probable",SMa0678,1.18874
"amino acid (ornithine, lysine, arginine) decarboxylase, probable",SMa0680,1.72483
"decarboxylase, probable (lysine, ornithine, arginine)",SMa0682,1.61907
probable transport protein,SMa0684,1.70163
hypothetical protein,SMa0687,1.27809
hypothetical protein,SMa0689,1.58384
hypothetical protein,SMa0690,1.59083
arginine deiminase,SMa0693,1.42416
ArcB catabolic ornithine carbamoyl transferase,SMa0695,1.08111
carbamate kinase,SMa0697,1.32214
hypothetical protein,SMa0699,0.641861
FixT2 transcription regulator,SMa0760,1.5461
hypothetical protein,SMa0763,1.0945
FixN2 cytochrome c oxidase polypeptide I,SMa0765,1.37528
FixO2 cytochrome c oxidase,SMa0766,1.66258
FixQ2 cbb3-type cytochrome oxidase,SMa0767,2.02774
FixP2 cytochrome c oxidase,SMa0769,1.98069
hypothetical protein with local similarity,SMa0771,1.39261
TRm23b IS ATP-binding protein,SMa0776,1.36806
hypothetical protein,SMa0809,-0.507378
FixU nitrogen fixation protein,SMa0810,0.993684
FdxN ferredoxin,SMa0811,1.06721
NifB FeMo cofactor biosynthesis protein,SMa0814,1.00927
NifA transcriptional activator,SMa0815,0.853697
FixX ferredoxin-like protein,SMa0816,1.04968
SyrM transcriptional regulator,SMa0849,0.891517
3-ketoacyl-(acyl-carrier-protein) reductase,SMa0854,0.740868
hypothetical protein,SMa1004,1.0313
hypothetical protein,SMa1057,0.701436
hypothetical protein,SMa1076,0.870434
Nex18 Symbiotically induced conserved protein,SMa1077,2.27169
hypothetical protein,SMa1078,1.70007
TspO Tryptophan rich sensory protein homologue,SMa1079,1.58881
hypothetical protein,SMa1081,1.52405
hypothetical protein,SMa1082,1.19048
putative phosphoketolase,SMa1084,1.60958
hypothetical protein,SMa1086,1.23828
Putative cation transport P-type ATPase,SMa1087,1.26019
hypothetical protein,SMa1091,1.55694
hypothetical protein,SMa1092,1.54808
hypothetical protein,SMa1093,1.78295
hypothetical protein,SMa1095,1.60785
hypothetical protein,SMa1096,1.11587
hypothetical protein,SMa1097,1.43621
hypothetical protein,SMa1100,1.79806
hypothetical protein,SMa1101,1.68286
Probable adenylate cyclase,SMa1103,1.04473
probable HspC2 heat shock protein,SMa1118,1.57997
"ABC transporter, ATP binding protein, hypothetical",SMa1120,1.47004
hypothetical protein,SMa1122,1.77203
hypothetical protein,SMa1124,1.18165
hypothetical protein,SMa1126,1.62772
DegP4 protease like protein,SMa1128,1.34152
hypothetical protein,SMa1131,1.41579
hypothetical protein,SMa1132,1.37715
hypothetical protein,SMa1134,1.59689
hypothetical protein,SMa1136,1.21616
hypothetical protein,SMa1146,1.52586
hypothetical protein,SMa1147,1.32391
hypothetical protein,SMa1149,1.5825
hypothetical protein,SMa1151,1.10469
hypothetical protein,SMa1153,1.39898
hypothetical protein,SMa1154,1.57967
"Cation transport P-type ATPase, hypothetical",SMa1155,1.5755
probable alcohol,SMa1156,1.61677
hypothetical protein,SMa1158,1.39609
Putative cation transport P-type ATPase,SMa1163,1.31332
Putative hydrolase protein,SMa1166,1.66037
hypothetical protein,SMa1168,2.23979
hypothetical protein,SMa1169,1.3465
putative CycB2 cytochrome c552,SMa1170,1.36058
hypothetical protein,SMa1171,1.21014
hypothetical protein,SMa1176,1.35971
hypothetical protein,SMa1178,1.35134
NosR Regulatory protein for N2O reductase,SMa1179,1.30707
nitrous-oxide reductase precurser,SMa1182,1.60875
NosD periplasmic copper-binding precursor,SMa1183,1.34486
putative flavohemoglobin like protein,SMa1191,1.12951
hypothetical protein,SMa1194,1.47799
hypothetical protein,SMa1195,1.45604
possible Copper export protein,SMa1198,1.55856
hypothetical protein,SMa1200,1.2213
hypothetical protein,SMa1201,1.33466
FixK-like regulatory protein,SMa1207,1.09203
FixI1 copper transport ATPase,SMa1209,1.57914
FixH nitrogen fixation protein,SMa1210,1.40885
FixG Iron sulfur membrane protein,SMa1211,1.06797
FixP1 Di-heme cytochrome c,SMa1213,1.5447
FixQ1 cbb3-type cytochrome oxidase,SMa1214,1.42165
FixO1 c-type cytochrome,SMa1216,1.42347
FixN1 Heme b / copper cytochrome c oxidase subunit,SMa1220,0.806233
FixT1 Inhibitor of FixL autophosphorylation,SMa1226,1.22751
hypothetical protein,SMa1231,1.1181
"NapC membrane protein, e-donor to periplasmic nitrate reductase",SMa1232,1.28451
NapA periplasmic nitrate reductase,SMa1236,1.20211
NapE component of periplasmic nitrate reductase,SMa1241,1.10225
Azu1 pseudoazurin (blue copper protein),SMa1243,1.58204
NirV periplasmic nitrate reductase,SMa1247,0.758955
putative NirK Cu-nitrite reductase,SMa1250,1.12771
hypothetical protein,SMa1252,1.14003
hypothetical protein,SMa1254,0.884941
hypothetical protein,SMa1255,2.03045
hypothetical protein,SMa1256,1.68016
hypothetical protein,SMa1259,1.43816
hypothetical protein,SMa1261,1.77383
coproporphyrinogen III oxidase,SMa1266,1.34462
NorD protein required for nitric oxide reductase (Nor) activity,SMa1269,0.984129
NorQ protein required for nitric oxide reductase activity,SMa1272,1.44545
NorB nitric oxide reductase,SMa1273,1.54692
NorC nitric oxide reductase,SMa1276,1.33939
NorE protein involved in nitric oxide reduction,SMa1279,1.06107
Probable NnrU protein,SMa1283,1.41754
3-octaprenyl-4-hydroxybenzoate carboxy-lyase,SMa1285,1.31119
hypothetical protein,SMa1288,1.14901
hypothetical protein,SMa1289,1.75405
hypothetical protein,SMa1291,1.32764
hypothetical protein,SMa1292,0.614573
hypothetical protein,SMa1294,1.17157
AdhA1 alcohol,SMa1296,1.29237
Probable fatty acid acyl-CoA,SMa1400,-0.766058
putative 5-dehydro-4-deoxyglucarate dehydratase,SMa1440,-0.590015
Probable thiolase,SMa1450,0.670483
Probable,SMa1452,-0.499815
putative serine-pyruvate transaminase,SMa1495,1.15729
putative oxidoreductase,SMa1519,0.573959
hypothetical protein,SMa1521,1.06117
SyrB2 transcriptional regulator,SMa1586,-0.583392
putative LysR-family transcriptional regulator,SMa1602,0.590569
hypothetical protein,SMa1697,-0.497334
Putative POLYHYDROXYALKANOATE DEPOLYMERASE,SMa1961,-1.21843
hypothetical protein,SMa2061,0.600638
probable DNA-binding protein,SMa2151,-0.613769
hypothetical protein,SMa2233,-0.62339
hypothetical protein,SMa2245,-0.457755
hypothetical protein,SMa2347,0.993829
diaminobutyrate--2-oxoglutarate aminotransferase,SMa2400,-1.46599
"RhsB L-2,4-diaminobutyrate decarboxylase",SMa2402,-1.63076
RhbC rhizobactin siderophore biosynthesis protein,SMa2404,-1.32669
RhbE Rhizobactin siderophore biosynthesis protein,SMa2408,-1.4279
RhbF Rhizobactin siderophore biosynthesis protein RhsF,SMa2410,-1.24422
RhtA Rhizobactin receptor precursor,SMa2414,-1.27938
putative rhizopine binding protein,SMb20072,-0.669697
putative monooxygenase protein,SMb20103,0.817927
hypothetical protein,SMb20116,0.808109
hypothetical sugar transferase protein,SMb20117,0.866036
hypothetical protein,SMb20167,0.54198
hypothetical protein,SMb20194,1.06104
probable CbbX protein,SMb20196,1.03281
"putative ribulose-1,5-bisphosphate carboxylase small subunit protein",SMb20197,1.18242
methionine sulfoxide reductase A,SMb20198,1.3077
fructose-bisphosphate aldolase,SMb20199,0.685458
transketolase,SMb20200,1.20583
putative phosphoribulokinase protein,SMb20201,1.35687
hypothetical protein,SMb20255,1.2813
hypothetical protein,SMb20303,1.10653
putative efflux protein,SMb20346,0.482603
hypothetical protein,SMb20359,0.851619
hypothetical protein,SMb20360,0.903722
putative ionic voltage-gated channel protein,SMb20361,0.535463
hypothetical protein,SMb20551,1.01507
hypothetical protein,SMb20591,0.846563
putative sugar uptake ABC transporter ATP-binding protein,SMb20661,0.850434
hypothetical protein,SMb20663,1.22031
"putative transcriptional regulator, GntR family protein",SMb20664,1.15231
putative sugar uptake ABC transporter ATP-binding protein,SMb20673,1.10584
"putative transcriptional regulator, LacI family protein",SMb20674,0.801979
ureidoglycolate hydrolase,SMb20677,1.77289
putative hydroxypyruvate reductase protein,SMb20678,2.20706
putative tartronate semialdehyde reductase protein,SMb20679,3.58484
putative hydroxypyruvate isomerase protein,SMb20680,3.49587
putative glyoxylate carboligase protein,SMb20681,2.33878
putative methylated-DNA--protein-cysteine methyltransferase,SMb20708,0.707493
hypothetical protein,SMb20726,-0.510561
putative glycosyltransferase protein,SMb20748,0.679186
putative propionyl-CoA carboxylase beta chain protein,SMb20755,-0.598227
putative propionyl-CoA carboxylase alpha chain protein,SMb20756,-0.517499
"putative acetyltransferase, cysElacA/lpxA/nodL family protein",SMb20825,-0.683276
putative ATP-dependent RNA helicase protein,SMb20880,-0.609438
hypothetical myo-inositol dehydrogenase protein,SMb20899,-0.769365
hypothetical protein,SMb20900,-0.568661
putative exported carboxyl-terminal protease protein,SMb20928,0.65428
"msbA-like saccharide exporting ABC transporter protein, consisting of ATP-binding and permease domains",SMb20941,-0.539221
"hypothetical outer membrane protein, similar to Wza, OMA family",SMb20945,-0.451615
galactosyltransferase protein,SMb20946,-0.514689
putative periplasmatic protein,SMb20951,0.822846
UDPglucose pyrophosphorylase protein,SMb20960,-0.600584
putative transport protein,SMb21000,-0.69757
putative enzyme similar to human rTSbeta protein,SMb21113,-0.494719
phosphate uptake ABC transporter permease protein,SMb21174,-0.521345
phosphate uptake ABC transporter permease protein,SMb21175,-0.598334
phosphate uptake ABC transporter ATP-binding protein,SMb21177,-0.5699
4-aminobutyrate aminotransferase,SMb21186,0.533466
putative glycosyltransferase protein,SMb21189,0.523375
putative oligopeptide uptake ABC transporter periplasmic solute-binding protein precursor,SMb21196,-0.45037
probable xanthine dehydrogenase protein,SMb21286,0.47924
putative xanthine dehydrogenase protein,SMb21287,0.476383
"putative small heat shock protein, hsp20 family",SMb21294,1.59612
"putative small heat shock protein, hsp20 family",SMb21295,1.21649
hypothetical protein,SMb21296,0.704311
putative deoxyribose-phosphate aldolase protein,SMb21300,-0.552736
putative secreted calcium-binding protein,SMb21314,-0.614423
hypothetical protein,SMb21379,0.83142
hypothetical calcium binding protein,SMb21402,-0.628805
hypothetical protein,SMb21411,0.943172
"hypothetical protein, possibly C terminus of iron ABC transporter periplasmatic solute-binding protein",SMb21431,-0.62551
putative iron uptake ABC transporter periplasmic solute-binding protein precursor,SMb21432,-0.529531
hypothetical protein,SMb21440,0.900243
chaperonin GroEL,SMb21566,0.55256
putative phenylacetic acid degradation protein,SMb21637,0.838667
putative phenylacetic acid degradation protein,SMb21639,0.848094
tRNA-Arg-CCG,SMb21712,-1.32654
PUTATIVE CHAPERONE PROTEIN,SMc00003,-0.50044
enoyl-(acyl carrier protein) reductase,SMc00005,-0.736624
hypothetical protein,SMc00006,-0.531923
PUTATIVE CYTOCHROME C OXIDASE SUBUNIT II PROTEIN,SMc00009,-0.59975
cytochrome C oxidase assembly protein,SMc00012,-0.458537
ADENINE DNA METHYLTRANSFERASE PROTEIN,SMc00021,-0.543786
pyruvate phosphate dikinase,SMc00025,-0.963523
hypothetical protein,SMc00033,-0.601764
CONSERVED HYPOTHETICAL SIGNAL PEPTIDE PROTEIN,SMc00070,0.693451
PUTATIVE ALPHA-HALOCARBOXYLIC ACID DEHALOGENASE PROTEIN,SMc00103,-0.687811
hypothetical protein,SMc00117,0.725574
hypothetical protein,SMc00118,0.514293
PUTATIVE AMINO-ACID BINDING PERIPLASMIC PROTEIN,SMc00140,-0.538488
hypothetical protein,SMc00147,-0.862717
hypothetical protein,SMc00171,-0.710889
PROBABLE UBIQUINOL-CYTOCHROME C REDUCTASE IRON-SULFUR SUBUNIT PROTEIN,SMc00187,-0.475549
PUTATIVE PEPTIDYL-PROLYL CIS-TRANS ISOMERASE PROTEIN,SMc00234,-0.472862
hypothetical protein,SMc00284,1.47377
homoserine dehydrogenase,SMc00293,-0.465632
hypothetical protein,SMc00294,-0.454107
hypothetical protein,SMc00332,-0.667357
30S ribosomal protein S1,SMc00335,-0.475737
translation initiation factor IF-3,SMc00362,-0.511897
50S ribosomal protein L35,SMc00363,-0.575708
50S ribosomal protein L20,SMc00364,-0.520132
phenylalanyl-tRNA synthetase alpha subunit,SMc00365,-0.475092
hypothetical protein,SMc00367,0.675272
HYPOTHETICAL/UNKNOWN PROTEIN,SMc00373,0.599468
hypothetical protein,SMc00397,1.22818
PUTATIVE MYO-INOSITOL CATABOLISM PROTEIN,SMc00432,-0.532042
hypothetical protein,SMc00472,-0.549166
hypothetical protein,SMc00484,-0.560574
phosphoribosylformylglycinamidine synthase,SMc00494,-0.669029
PUTATIVE ATP-DEPENDENT RNA HELICASE PROTEIN,SMc00522,-0.446668
tyrosyl-tRNA synthetase,SMc00526,-0.478587
PUTATIVE ABC TRANSPORTER ATP-BINDING PROTEIN,SMc00531,-0.459815
hypothetical protein,SMc00532,-0.540072
PUTATIVE COLICIN V PRODUCTION HOMOLOG TRANSMEMBRANE PROTEIN,SMc00555,-0.481852
hypothetical protein,SMc00566,-0.616504
30S ribosomal protein S6,SMc00568,-0.582747
acyl-carrier-protein S-malonyltransferase,SMc00571,-0.485034
3-oxoacyl-(acyl carrier protein) synthase,SMc00574,-0.546603
leucyl aminopeptidase,SMc00585,-0.594069
PUTATIVE ABC TRANSPORTER ATP-BINDING PROTEIN,SMc00590,-0.478108
HYPOTHETICAL/UNKNOWN SIGNAL PEPTIDE PROTEIN,SMc00591,1.65006
PUTATIVE BETA-ETHERASE (BETA-ARYL ETHER CLEAVING ENZYME) PROTEIN,SMc00594,-0.696835
PUTATIVE HEAT RESISTANT AGGLUTININ 1 PROTEIN,SMc00638,-0.554861
phosphoserine aminotransferase,SMc00640,-0.52123
adenylosuccinate synthetase,SMc00643,-0.498212
"RESPONSE REGULATOR,CONTROLS CHROMOSOMAL REPLICATION INITIATION PROTEIN",SMc00654,-0.528694
hypothetical protein,SMc00655,-0.549361
50S ribosomal protein L28,SMc00704,-0.520579
hypothetical protein,SMc00709,0.696529
HYPOTHETICAL/UNKNOWN TRANSMEMBRANE PROTEIN,SMc00764,0.620179
PROBABLE METHYL-ACCEPTING CHEMOTAXIS PROTEIN,SMc00765,-0.513684
acetyl-coenzyme A synthetase,SMc00774,-0.480296
hypothetical protein,SMc00777,-3.63209
PROBABLE PERIPLASMIC DIPEPTIDE-BINDING PROTEIN,SMc00786,-0.726766
PROBABLE DIPEPTIDE TRANSPORT SYSTEM PERMEASE PROTEIN,SMc00787,-0.792367
PROBABLE DIPEPTIDE TRANSPORT SYSTEM PERMEASE PROTEIN,SMc00788,-0.708086
PROBABLE DIPEPTIDE TRANSPORT ATP-BINDING ABC TRANSPORTER PROTEIN,SMc00789,-0.669377
hypothetical protein,SMc00801,0.802808
inositol-5-monophosphate dehydrogenase,SMc00815,-0.654187
hypothetical protein,SMc00816,-0.607398
tRNA-Gln-CTG,SMc00842,-1.68497
PUTATIVE PROTEASE PROTEIN,SMc00857,0.550017
ATP synthase subunit B,SMc00868,-0.618692
ATP synthase subunit B,SMc00869,-0.579115
"PUTATIVE FOF1 ATP SYNTHASE, SUBUNIT I TRANSMEMBRANE PROTEIN",SMc00872,-0.464547
isoleucyl-tRNA synthetase,SMc00908,-0.470386
histidyl-tRNA synthetase,SMc00919,-0.457782
hypothetical protein,SMc00924,-0.572752
PROBABLE GLYCOLATE OXIDASE IRON-SULFUR SUBUNIT PROTEIN,SMc00926,0.559047
hypothetical protein,SMc00949,0.515149
PROBABLE CHEMORECEPTOR (METHYL-ACCEPTING CHEMOTAXIS) TRANSMEMBRANE PROTEIN,SMc00975,-0.766444
hypothetical protein,SMc00999,-0.568965
hypothetical protein,SMc01016,0.580495
CTP synthetase,SMc01025,-0.520535
PUTATIVE ESTERASE PROTEIN,SMc01093,0.708877
PUTATIVE MULTIDRUG EFFLUX SYSTEM TRANSMEMBRANE PROTEIN,SMc01094,0.597174
PROBABLE MULTIDRUG-EFFLUX SYSTEM TRANSMEMBRANE PROTEIN,SMc01095,0.572318
PROBABLE SMALL HEAT SHOCK PROTEIN,SMc01106,0.642699
hypothetical protein,SMc01133,0.560786
PUTATIVE OXIDOREDUCTASE PROTEIN,SMc01159,0.793028
hypothetical protein,SMc01160,1.24937
PUTATIVE OXIDOREDUCTASE PROTEIN,SMc01163,-0.535197
PUTATIVE SUGAR KINASE PROTEIN,SMc01165,-0.478448
PROBABLE ALANINE DEHYDROGENASE OXIDOREDUCTASE PROTEIN,SMc01169,0.586279
hypothetical protein,SMc01180,0.814166
S-adenosylmethionine:tRNA ribosyltransferase-isomerase,SMc01207,-0.516734
carbamoyl-phosphate synthase large subunit,SMc01215,-0.563099
single-strand DNA-binding protein,SMc01233,-0.550148
ribonucleotide-diphosphate reductase alpha subunit,SMc01237,-0.47335
hypothetical protein,SMc01241,-0.703857
SIGNAL PEPTIDE PROTEIN,SMc01242,-0.733104
tRNA-Ser-TGA,SMc01243,-1.2481
hypothetical protein,SMc01271,-0.590168
50S ribosomal protein L17,SMc01283,-0.721987
DNA-directed RNA polymerase alpha subunit,SMc01285,-0.696186
30S ribosomal protein S11,SMc01286,-0.649455
30S ribosomal protein S13,SMc01287,-0.466734
adenylate kinase,SMc01288,-0.45058
preprotein translocase SecY,SMc01289,-0.649736
PROBABLE 50S RIBOSOMAL PROTEIN L15,SMc01290,-0.552145
50S ribosomal protein L30,SMc01291,-0.626461
30S ribosomal protein S5,SMc01292,-0.746825
50S ribosomal protein L18,SMc01293,-0.652333
50S ribosomal protein L6,SMc01294,-0.705318
30S ribosomal protein S8,SMc01295,-0.700517
30S ribosomal protein S14,SMc01296,-0.736726
50S ribosomal protein L5,SMc01297,-0.866386
50S ribosomal protein L24,SMc01298,-0.971977
50S ribosomal protein L14,SMc01299,-0.859605
30S ribosomal protein S17,SMc01300,-0.630258
PROBABLE 50S RIBOSOMAL PROTEIN L29,SMc01301,-0.607546
50S ribosomal protein L16,SMc01302,-0.69403
30S ribosomal protein S3,SMc01303,-0.679824
30S ribosomal protein S19,SMc01305,-0.667435
50S ribosomal protein L2,SMc01306,-0.65594
50S ribosomal protein L4,SMc01308,-0.76424
50S ribosomal protein L3,SMc01309,-0.927089
30S ribosomal protein S10,SMc01310,-0.882041
elongation factor EF-2,SMc01312,-0.772762
30S ribosomal protein S7,SMc01313,-0.797295
30S ribosomal protein S12,SMc01314,-0.686122
DNA-directed RNA polymerase beta' subunit,SMc01316,-0.531112
DNA-directed RNA polymerase beta subunit,SMc01317,-0.621724
50S ribosomal protein L7/L12,SMc01318,-0.706585
50S ribosomal protein L10,SMc01319,-0.764388
50S ribosomal protein L1,SMc01320,-0.815424
50S ribosomal protein L11,SMc01321,-0.724179
transcription antitermination protein NusG,SMc01322,-0.451777
translocase,SMc01323,-0.52403
3-dehydroquinate dehydratase,SMc01343,-0.537318
acetyl-CoA carboxylase,SMc01344,-0.612662
acetyl-CoA carboxylase,SMc01345,-0.476174
50S ribosomal protein L33,SMc01369,-0.573438
acetolactate synthase III large subunit,SMc01431,-0.50583
PUTATIVE CREA PROTEIN,SMc01465,0.734406
PROBABLE METHYL ACCEPTING CHEMOTAXIS TRANSMEMBRANE PROTEIN,SMc01469,-0.64705
PUTATIVE HEMIN TRANSPORT SYSTEM PERMEASE TRANSMEMBRANE PROTEIN,SMc01511,-0.691393
PUTATIVE HEMIN BINDING PERIPLASMIC TRANSMEMBRANE PROTEIN,SMc01512,-0.568788
hypothetical protein,SMc01515,-0.720028
hypothetical protein,SMc01516,-0.744111
hypothetical protein,SMc01517,-0.635543
PUTATIVE METHYL VIOLOGEN/ETHIDIUM RESISTANCE TRANSMEMBRANE PROTEIN,SMc01523,0.674141
PUTATIVE DIPEPTIDASE PROTEIN,SMc01524,-0.494907
PUTATIVE DIPEPTIDE BINDING PERIPLASMIC PROTEIN,SMc01525,-0.517882
hypothetical protein,SMc01543,-0.585199
carbamoyl-phosphate synthase small subunit,SMc01569,-0.546902
aspartate aminotransferase,SMc01578,-0.502773
hypothetical protein,SMc01583,0.544768
PUTATIVE PERIPLASMIC BINDING ABC TRANSPORTER PROTEIN,SMc01605,-0.569156
PUTATIVE PERMEASE ABC TRANSPORTER PROTEIN,SMc01627,0.652069
PUTATIVE PERIPLASMIC BINDING ABC TRANSPORTER PROTEIN,SMc01628,0.644492
PUTATIVE ERY OPERON REPRESSOR TRANSCRIPTION REGULATOR PROTEIN,SMc01629,0.839872
PUTATIVE PERMEASE ABC TRANSPORTER PROTEIN,SMc01634,1.19493
PUTATIVE FERRICHROME-IRON RECEPTOR PRECURSOR PROTEIN,SMc01657,-0.798431
PUTATIVE TRANSPORT PROTEIN,SMc01658,-0.618576
PUTATIVE TRANSPORT TRANSMEMBRANE PROTEIN,SMc01659,-0.637305
PROBABLE CHEMORECEPTOR (METHYL-ACCEPTING CHEMOTAXIS) TRANSMEMBRANE PROTEIN,SMc01719,-0.475938
chaperonin GroEL,SMc01758,0.619167
hypothetical protein,SMc01759,0.629605
hypothetical protein,SMc01760,-0.513888
transcription antitermination protein NusB,SMc01778,-0.607818
3-oxoacyl-(acyl carrier protein) synthase,SMc01785,-0.527844
30S ribosomal protein S9,SMc01803,-0.508107
50S ribosomal protein L13,SMc01804,-0.735004
PUTATIVE CYTOCHROME P450-LIKE MONOOXYGENASE PROTEIN,SMc01812,-0.475577
hypothetical protein,SMc01834,-0.683877
hypothetical protein,SMc01848,-0.574489
3-methyl-2-oxobutanoate hydroxymethyltransferase,SMc01881,-0.509303
hypothetical protein,SMc01907,-0.533289
trigger factor,SMc02050,-0.582992
PUTATIVE PROTEIN-EXPORT MEMBRANE PROTEIN,SMc02057,-0.510533
twin argininte translocase protein A,SMc02067,-0.574847
citrate synthase,SMc02087,-0.459778
PUTATIVE OUTER MEMBRANE TRANSMEMBRANE PROTEIN,SMc02094,-0.480761
ribosome releasing factor,SMc02098,-0.739769
uridylate kinase,SMc02099,-0.777985
elongation factor Ts,SMc02100,-0.458726
30S ribosomal protein S2,SMc02101,-0.457555
hypothetical protein,SMc02111,-2.1281
PUTATIVE TRANSPORT TRANSMEMBRANE PROTEIN,SMc02161,-0.992785
glucose-6-phosphate isomerase,SMc02163,-0.483938
PUTATIVE PERIPLASMIC BINDING ABC TRANSPORTER PROTEIN,SMc02171,0.568569
hypothetical protein,SMc02240,-0.871365
PUTATIVE QUINOL OXIDASE SUBUNIT II TRANSMEMBRANE PROTEIN,SMc02254,1.25581
PUTATIVE QUINOL OXIDASE SUBUNIT I TRANSMEMBRANE PROTEIN,SMc02255,1.04082
HYPOTHETICAL UNKNOWN PROTEIN,SMc02373,-1.21465
HYPOTHETICAL UNKNOWN PROTEIN,SMc02374,-0.976508
PUTATIVE HEAT SHOCK PROTEIN,SMc02376,-0.58697
hypothetical protein,SMc02382,0.713534
PUTATIVE INTEGRASE PROTEIN,SMc02397,-0.568938
hypothetical protein,SMc02401,0.753532
tRNA-Ser-GCT,SMc02409,-1.02393
PROBABLE ATP-DEPENDENT PROTEASE (HEAT SHOCK PROTEIN),SMc02433,0.918174
PUTATIVE HYDROLASE PROTEIN,SMc02442,0.551123
PROBABLE GLUTAREDOXIN 3 PROTEIN,SMc02443,0.756274
hypothetical protein,SMc02447,-0.817789
PUTATIVE PERIPLASMIC BINDING ABC TRANSPORTER PROTEIN,SMc02471,0.716193
hypothetical protein,SMc02492,0.657793
PUTATIVE IRON-BINDING PERIPLASMIC ABC TRANSPORTER PROTEIN,SMc02509,-0.79156
ATP-dependent protease ATP-binding subunit,SMc02577,0.790767
hypothetical protein,SMc02634,-0.554969
hypothetical protein,SMc02646,0.677896
PUTATIVE GTP-BINDING PROTEIN,SMc02695,-0.497635
hypothetical protein,SMc02707,-0.616573
2-isopropylmalate synthase,SMc02717,-0.516267
ANTHRANILATE SYNTHASE INCLUDES: GLUTAMINE AMIDOTRANSFERASE PROTEIN,SMc02725,-0.52103
PUTATIVE IRON TRANSPORT PROTEIN,SMc02726,-1.25545
hypothetical protein,SMc02769,0.925295
hypothetical protein,SMc02770,-0.742232
PROBABLE SUCCINATE-SEMIALDEHYDE DEHYDROGENASE [NADP+] PROTEIN,SMc02780,0.858529
PUTATIVE RIBONUCLEASE PROTEIN,SMc02819,-0.745395
hypothetical protein,SMc02842,0.55393
HYPOTHETICAL SIGNAL PEPTIDE PROTEIN,SMc02854,0.946178
PUTATIVE PERMEASE ABC TRANSPORTER PROTEIN,SMc02872,0.613318
PUTATIVE PERIPLASMIC BINDING (SIGNAL PEPTIDE) ABC TRANSPORTER PROTEIN,SMc02873,0.625106
hypothetical protein,SMc02874,1.09424
hypothetical protein,SMc02875,0.879636
PUTATIVE TRANSCRIPTION REGULATOR PROTEIN,SMc02876,1.3435
PUTATIVE TRANSMEMBRANE PROTEIN,SMc02882,0.886912
hypothetical protein,SMc02900,0.508893
tRNA-Ser-GGA,SMc02915,-1.00311
PUTATIVE CHEMORECEPTOR (METHYL-ACCEPTING CHEMOTAXIS PROTEIN),SMc03004,-0.724066
hypothetical protein,SMc03005,-0.661771
CHEMOTAXIS PROTEIN (SENSORY TRANSDUCTION HISTIDINE KINASE),SMc03007,-0.520678
flagellar M-ring protein,SMc03014,-0.540029
hypothetical protein,SMc03023,-0.521372
flagellar basal body rod protein,SMc03027,-0.545314
flagellar basal body rod protein,SMc03028,-0.585761
FLAGELLIN A PROTEIN,SMc03037,-0.722198
PROBABLE FLAGELLIN D PROTEIN,SMc03039,-0.562289
PUTATIVE TRANSCRIPTION REGULATOR PROTEIN,SMc03046,-0.640867
hypothetical protein,SMc03152,0.616571
PUTATIVE OXIDOREDUCTASE PROTEIN,SMc03161,-0.64616
"homogentisate 1,2-dioxygenase",SMc03208,0.660315
PUTATIVE 4-HYDROXYPHENYLPYRUVATE DIOXYGENASE PROTEIN,SMc03211,0.617199
hypothetical protein,SMc03251,1.27417
gamma-glutamyl kinase,SMc03252,0.988194
hypothetical protein,SMc03744,0.732915
PROBABLE 50S RIBOSOMAL PROTEIN L21,SMc03770,-0.487443
50S ribosomal protein L27,SMc03772,-0.469421
hypothetical protein,SMc03773,-0.623127
tRNA-Ser-CGA,SMc03779,-1.45117
hypothetical protein,SMc03780,0.760658
hypothetical protein,SMc03781,0.66184
hypothetical protein,SMc03791,0.545632
HYPOTHETICAL/UNKNOWN TRANSMEMBRANE PROTEIN,SMc03794,1.01218
PUTATIVE PERIPLASMIC BINDING ABC TRANSPORTER PROTEIN,SMc03813,1.31314
PUTATIVE TRANSPORT SYSTEM PERMEASE ABC TRANSPORTER PROTEIN,SMc03814,1.64633
PUTATIVE ATP BINDING ABC TRANSPORTER PROTEIN,SMc03815,1.64887
PUTATIVE TRANSCRIPTION REGULATOR PROTEIN,SMc03816,1.34268
PUTATIVE SUGAR KINASE PROTEIN,SMc03817,1.2446
hypothetical protein,SMc03833,0.888414
PUTATIVE PTERIN-4-ALPHA-CARBINOLAMINE DEHYDRATASE PROTEIN,SMc03834,0.852304
50S ribosomal protein L19,SMc03863,-0.480597
ACETOACETYL-COA REDUCTASE PROTEIN,SMc03878,-10.6967
acetyl-CoA acetyltransferase,SMc03879,-10.686
hypothetical protein,SMc03880,0.580646
50S ribosomal protein L32,SMc03881,-0.704248
tRNA-Gly-GCC,SMc03902,-0.798429
PUTATIVE OXIDOREDUCTASE PROTEIN,SMc03968,0.567445
HYPOTHETICAL TRANSCRIPTION REGULATOR PROTEIN,SMc03998,-1.05901
hypothetical protein,SMc03999,0.775724
PROBABLE HEAT SHOCK PROTEIN,SMc04040,1.67556
tRNA-Val-GAC,SMc04060,-0.945343
PROBABLE ADENYLATE/GUANYLATE CYCLASE PROTEIN,SMc04172,0.560744
PROBABLE CHEMORECEPTOR (METHYL-ACCEPTING CHEMOTAXIS) TRANSMEMBRANE PROTEIN,SMc04227,-0.652145
PUTATIVE COLD SHOCK-LIKE TRANSCRIPTION REGULATOR PROTEIN,SMc04234,-0.451916
hypothetical protein,SMc04239,0.756327
PUTATIVE AMINO ACID CARRIER TRANSMEMBRANE PROTEIN,SMc04263,-0.644024
hypothetical protein,SMc04289,0.618597
PROBABLE FERRIC IRON TRANSPORT SYSTEM PERMEASE PROTEIN,SMc04316,-0.541781
IRON-BINDING PERIPLASMIC PROTEIN,SMc04317,-0.648535
CONSERVED HYPOTHETICAL SIGNAL PEPTIDE PROTEIN,SMc04352,-0.493862
ASPARTATE AMINOTRANSFERASE B PROTEIN,SMc04386,-0.459889
beta alanine-pyruvate transaminase,SMc04388,0.548307
