Product,test_id,log2(fold_change)
transcriptional regulator BetI,SMc00095,-4.7836
choline dehydrogenase,SMc00093,-3.2697
D-beta-hydroxybutyrate dehydrogenase protein,SMb21010,-3.12074
BETAINE ALDEHYDE DEHYDROGENASE BADH OXIDOREDUCTASE NAD PROTEIN,SMc00094,-2.96535
SIGNAL PEPTIDE PROTEIN,SMc01242,-2.89212
CHOLINE SULFATASE PROTEIN,SMc00127,-2.77849
HYPOTHETICAL/UNKNOWN TRANSMEMBRANE PROTEIN,SMc00031,-2.21795
PUTATIVE TRANSCRIPTION REGULATOR PROTEIN,SMc01226,-2.13613
tRNA-Ser-TGA,SMc01243,-2.09776
PUTATIVE IRON TRANSPORT PROTEIN,SMc02726,-2.08409
hypothetical protein,SMc01241,-1.93515
hypothetical protein,SMb20900,-1.82822
HYPOTHETICAL/UNKNOWN PROTEIN,SMc00198,-1.76884
hypothetical protein,SMc03244,-1.756
hypothetical myo-inositol dehydrogenase protein,SMb20899,-1.70261
HYPOTHETICAL/UNKNOWN PROTEIN,SMc02709,-1.70103
PUTATIVE GLYCEROL-3-PHOSPHATE REGULON REPRESSOR TRANSCRIPTION REGULATOR PROTEIN,SMc02521,-1.63709
PUTATIVE FOSMIDOMYCIN RESISTANCE ANTIBIOTIC RESISTANCE TRANSMEMBRANE PROTEIN,SMc00990,-1.61876
hypothetical protein,SMc02178,-1.61101
tRNA-Gln-CTG,SMc00842,-1.52143
carbamoyl-phosphate synthase large subunit,SMc01215,-1.51821
tRNA-Ser-CGA,SMc03779,-1.51518
tRNA-Cys-GCA,SMc01251,-1.48063
PUTATIVE GLYCEROL-3-PHOSPHATE DEHYDROGENASE PROTEIN,SMc02520,-1.42857
putative secreted calcium-binding protein,SMb20838,-1.41717
hypothetical exported peptide protein,SMb21329,-1.40132
PROBABLE MAGNESIUM AND COBALT TRANSPORT TRANSMEMBRANE PROTEIN,SMc00399,-1.3742
hypothetical protein,SMa2275,-1.36477
hypothetical protein,SMc01995,-1.33408
PUTATIVE FERRICHROME-IRON RECEPTOR PRECURSOR PROTEIN,SMc01611,-1.32688
PUTATIVE ABC TRANSPORTER ATP-BINDING PROTEIN,SMc00590,-1.31772
hypothetical protein,SMb20495,-1.31715
tRNA-Ser-GCT,SMc02409,-1.28962
30S ribosomal protein S7,SMc01313,-1.28653
hypothetical protein,SMc02447,-1.26191
hypothetical protein,SMc02707,-1.25995
hypothetical calcium binding protein,SMb21402,-1.25136
tRNA modification GTPase,SMc02797,-1.25013
hypothetical protein,SMb20727,-1.24033
tRNA-Ser-GGA,SMc02915,-1.23956
30S ribosomal protein S12,SMc01314,-1.23877
putative oxidoreductase protein,SMb21355,-1.23622
HYPOTHETICAL SIGNAL PEPTIDE PROTEIN,SMc00252,-1.22954
tRNA-Leu-GAG,SMc01380,-1.1855
HYPOTHETICAL SIGNAL PEPTIDE PROTEIN,SMc01470,-1.16059
hypothetical protein,SMc00332,-1.15954
probable glycerol kinase similar to sugar kinase protein,SMb21009,-1.15376
PUTATIVE FERRICHROME-IRON RECEPTOR PRECURSOR PROTEIN,SMc01657,-1.14221
30S ribosomal protein S6,SMc00568,-1.13683
hypothetical protein,SMb20746,-1.13672
Holliday junction resolvase,SMc03967,-1.12646
hypothetical protein,SMb20614,-1.11883
tRNA-Leu-CAA,SMc00759,-1.09543
hypothetical protein,SMc04188,-1.09159
50S ribosomal protein L3,SMc01309,-1.08744
uridylate kinase,SMc02099,-1.08283
50S ribosomal protein L13,SMc01804,-1.07463
probable NreA protein,SMa1639,-1.07309
30S ribosomal protein S10,SMc01310,-1.04983
hypothetical protein,SMc00978,-1.04923
putative inositol monophosphatase protein,SMb20150,-1.04612
hypothetical protein,SMc02497,-1.0454
phosphate uptake ABC transporter ATP-binding protein,SMb21177,-1.041
30S ribosomal protein S9,SMc01803,-1.04082
HYPOTHETICAL UNKNOWN PROTEIN,SMc02374,-1.03527
hypothetical protein,SMc01216,-1.0268
hypothetical protein,SMc00251,-1.01365
50S ribosomal protein L1,SMc01320,-1.01338
50S ribosomal protein L5,SMc01297,-1.00805
PUTATIVE RIBONUCLEASE PROTEIN,SMc02819,-1.00471
hypothetical protein,SMa1595,-0.999761
PUTATIVE TRANSCRIPTION REGULATOR PROTEIN,SMc02851,-0.998397
hypothetical protein,SMc00141,-0.995907
2-isopropylmalate synthase,SMc02717,-0.992404
RF00169,SMc_R0063,-0.987737
hypothetical protein,SMc01848,-0.986854
PUTATIVE AMINO ACID EFFLUX TRANSMEMBRANE PROTEIN,SMc03827,-0.981709
transcription antitermination protein NusB,SMc01778,-0.981627
C4-dicarboxylate transport protein,SMb20611,-0.978907
carbamoyl-phosphate synthase small subunit,SMc01569,-0.976111
50S ribosomal protein L17,SMc01283,-0.975963
DNA-directed RNA polymerase alpha subunit,SMc01285,-0.975908
putative glutatmine synthetase II protein,SMb20745,-0.975165
PUTATIVE TRANSPORT TRANSMEMBRANE PROTEIN,SMc01869,-0.974492
PUTATIVE AMINO ACID CARRIER TRANSMEMBRANE PROTEIN,SMc04263,-0.97274
30S ribosomal protein S11,SMc01286,-0.969268
putative ferrichrome-iron receptor,SMa1747,-0.962644
isoleucyl-tRNA synthetase,SMc00908,-0.961976
elongation factor EF-2,SMc01312,-0.959805
CTP synthetase,SMc01025,-0.958108
50S ribosomal protein L4,SMc01308,-0.954629
PROBABLE CHAPERONE HOMOLOGUE TRANSMEMBRANE PROTEIN,SMc01278,-0.948758
putative transcriptional regulator protein,SMb20455,-0.946149
hypothetical protein,SMc03831,-0.945915
HYPOTHETICAL UNKNOWN PROTEIN,SMc02373,-0.94321
hypothetical protein,SMc00171,-0.942305
BETA-1-->2GLUCAN EXPORT ATP-BINDING PROTEIN,SMc03900,-0.938651
hypothetical protein,SMc04310,-0.929497
30S ribosomal protein S14,SMc01296,-0.92406
hypothetical protein,SMb20876,-0.923733
30S ribosomal protein S8,SMc01295,-0.917015
30S ribosomal protein S18,SMc00567,-0.915745
50S ribosomal protein L11,SMc01321,-0.912737
tRNA pseudouridine synthase B,SMc00321,-0.904407
putative sugar kinase PfkB family protein,SMb21374,-0.903715
putative transcriptional regulator protein,SMb20375,-0.901696
PUTATIVE GLYCEROL TRINITRATE (GTN) REDUCTASE PROTEIN,SMc01227,-0.900472
hypothetical protein,SMc00123,-0.899404
50S ribosomal protein L14,SMc01299,-0.897945
hypothetical protein possibly C terminus of iron ABC transporter periplasmatic solute-binding protein,SMb21431,-0.896662
hypothetical protein,SMc01742,-0.88118
phosphoribosyltransferase,SMb21280,-0.880157
hypothetical protein,SMa0861,-0.878605
hypothetical protein,SMc00472,-0.878227
hypothetical protein,SMc00566,-0.877117
PUTATIVE OXIDOREDUCTASE PROTEIN,SMc01163,-0.872889
posttranscriptional regulator repressor protein,SMb20947,-0.870124
ribosome releasing factor,SMc02098,-0.868794
PUTATIVE ATP-DEPENDENT RNA HELICASE PROTEIN,SMc01090,-0.868581
probable smc22-r protein,SMb20230,-0.86705
HYPOTHETICAL HEMOLYSIN-TYPE CALCIUM-BINDING PROTEIN,SMc00286,-0.866511
glutamyl-tRNA synthetase,SMc03172,-0.866179
HYPOTHETICAL CALCIUM-BINDING PROTEIN,SMc03108,-0.864701
elongation factor Ts,SMc02100,-0.861532
PUTATIVE HEAT SHOCK PROTEIN,SMc02376,-0.85326
glutamate dehydrogenase,SMa0228,-0.847961
PUTATIVE TRANSPORT PROTEIN,SMc01658,-0.846814
30S ribosomal protein S2,SMc02101,-0.845069
PUTATIVE OXIDOREDUCTASE PROTEIN,SMc00287,-0.838867
hypothetical protein,SMc01573,-0.837335
arginyl-tRNA synthetase,SMc02073,-0.835844
putative membrane protein slightly similar to carrier proteins,SMb20824,-0.835098
hypothetical protein,SMc00737,-0.834197
hypothetical protein,SMc00484,-0.829804
aspartyl-tRNA synthetase,SMc01756,-0.824662
PUTATIVE GTP-BINDING PROTEIN,SMc02695,-0.823005
30S ribosomal protein S15,SMc00323,-0.821785
50S ribosomal protein L10,SMc01319,-0.820501
glucose-inhibited division protein A,SMc02798,-0.810013
PUTATIVE FOF1 ATP SYNTHASE SUBUNIT I TRANSMEMBRANE PROTEIN,SMc00872,-0.808248
50S ribosomal protein L2,SMc01306,-0.806304
50S ribosomal protein L6,SMc01294,-0.800949
probable xanthine dehydrogenase protein,SMb21011,-0.799116
PROBABLE PEPTIDE CHAIN RELEASE FACTOR RF-3 PROTEIN,SMc00427,-0.793872
PROBABLE SUCCINATE DEHYDROGENASE CYTOCHROME B-556 SUBUNIT TRANSMEMBRANE PROTEIN,SMc02463,-0.793558
putative ATP-dependent RNA helicase protein,SMb20880,-0.790618
trigger factor,SMc02050,-0.767166
enoyl-(acyl carrier protein) reductase,SMc00005,-0.76441
30S ribosomal protein S5,SMc01292,-0.754604
50S ribosomal protein L18,SMc01293,-0.74722
export protein SecB,SMc02788,-0.744004
50S ribosomal protein L7/L12,SMc01318,-0.731769
30S ribosomal protein S13,SMc01287,-0.723891
50S ribosomal protein L19,SMc03863,-0.722503
PROBABLE GTP-BINDING PROTEIN (TYROSINE PHOSPHORYLATED PROTEIN A),SMc03242,-0.721136
ribose-phosphate pyrophosphokinase,SMc02686,-0.710645
3-oxoacyl-(acyl carrier protein) synthase,SMc00574,-0.707921
50S ribosomal protein L27,SMc03772,-0.702949
phosphoenolpyruvate carboxykinase,SMc02562,-0.700044
putative transcriptional regulator protein,SMb20347,0.727941
UREASE ALPHA SUBUNIT PROTEIN,SMc01837,0.752665
2'3'-cyclic nucleotide 2'-phosphodiesterase/3'-nucleotidase bifunctional periplasmic precursor protein,SMc04449,0.764014
Putative oxidoreductase,SMa2037,0.766134
probable HspC2 heat shock protein,SMa1118,0.767094
PUTATIVE 4-HYDROXYPHENYLPYRUVATE DIOXYGENASE PROTEIN,SMc03211,0.768947
PUTATIVE OXIDOREDUCTASE TRANSMEMBRANE PROTEIN,SMc00105,0.773722
hypothetical protein,SMa2241,0.776931
hypothetical protein,SMb21440,0.778194
integration host factor beta subunit,SMc01134,0.780365
ornithine cyclodeaminase,SMb21494,0.783742
PROBABLE ALPHA-GLUCOSIDASE PROTEIN,SMc03064,0.785422
hypothetical protein,SMc02148,0.794226
PUTATIVE OXIDOREDUCTASE PROTEIN,SMc00761,0.794384
RNA polymerase sigma factor,SMc00646,0.801411
Putative ABC transporter periplasmic solute-binding protein,SMa1755,0.8036
hypothetical protein,SMc02382,0.80383
PUTATIVE TRANSCRIPTION REGULATOR PROTEIN,SMc03169,0.805284
membrane-bound proton-translocating pyrophosphatase,SMc01780,0.807474
PUTATIVE LEUCINE-SPECIFIC BINDING PROTEIN PRECURSOR,SMc01946,0.807476
hypothetical protein,SMa0247,0.808245
putative integral membrane transporter protein xanthineuracil permeases family,SMb21281,0.810592
hypothetical protein,SMc02769,0.812009
FixN2 cytochrome c oxidase polypeptide I,SMa0765,0.812637
PROBABLE GENERAL L-AMINO ACID TRANSPORT PERMEASE ABC TRANSPORTER PROTEIN,SMc02119,0.812719
hypothetical protein,SMc03251,0.812748
PUTATIVE PERIPLASMIC BINDING PROTEIN,SMc04396,0.815642
PUTATIVE OXIDOREDUCTASE PROTEIN,SMc03968,0.818417
Putative cation transport P-type ATPase,SMa1087,0.819508
PUTATIVE AMINO-ACID TRANSPORT SYSTEM ATP-BINDING ABC TRANSPORTER PROTEIN,SMc03135,0.821432
selenocysteine synthase,SMa0011,0.824315
putative ABC transporter periplasmic spermidineputrescine-binding protein,SMb20284,0.828576
hypothetical protein,SMc03233,0.832194
ALPHA-GLUCOSIDES TRANSPORT SYSTEM PERMEASE ABC TRANSPORTER PROTEIN,SMc03063,0.836621
hypothetical protein,SMc00589,0.837486
PUTATIVE GLUTAMINE SYNTHETASE PROTEIN,SMc00762,0.845639
PUTATIVE TRANSMEMBRANE PROTEIN,SMc02882,0.84911
hypothetical protein,SMc03171,0.8505
PUTATIVE PROTEASE PROTEIN,SMc00857,0.85103
urocanate hydratase,SMb21163,0.851855
hypothetical protein,SMc03999,0.852043
putative ABC transporter periplasmic sugar-binding protein,SMb20508,0.856129
hypothetical protein,SMc01547,0.857928
hypothetical protein,SMc01133,0.860942
hypothetical protein,SMa1154,0.863896
hypothetical protein,SMc00949,0.87119
HYPOTHETICAL SIGNAL PEPTIDE PROTEIN,SMc02854,0.872666
PUTATIVE AUTOINDUCER SYNTHASE PROTEIN,SMc00168,0.872755
putative elongation factor G protein,SMb20049,0.873605
ACETOACETYL-COA REDUCTASE PROTEIN,SMc03878,0.885859
putative amino acid uptake ABC transporter periplasmic solute-binding protein precursor,SMb20706,0.886707
PUTATIVE PERIPLASMIC BINDING ABC TRANSPORTER PROTEIN,SMc03869,0.890644
dihydropyrimidine dehydrogenase,SMc01815,0.891986
30S ribosomal protein S21,SMc04320,0.893666
PUTATIVE L-PROLINE 3-HYDROXYLASE PROTEIN,SMc03253,0.896221
ALPHA-GLUCOSIDES TRANSPORT ATP-BINDING ABC TRANSPORTER PROTEIN,SMc03065,0.906823
PROBABLE SORBITOL-BINDING PERIPLASMIC PROTEIN,SMc01496,0.914773
hypothetical protein,SMa0669,0.915147
hypothetical protein,SMa1136,0.916092
chaperonin GroEL,SMc01758,0.917529
putative sugar ABC transporter periplasmic sugar-binding protein ABC TRANSPORTER,SMb20018,0.919929
enoyl-CoA hydratase,SMb20752,0.919944
ABC transporter ATP binding protein hypothetical,SMa1120,0.922144
atrazine chlorohydrolase,SMc00673,0.923365
Conserved hypothetical protein (ORF151),SMa1223,0.925782
putative protocatechuate 34-dioxygenase beta chain protein,SMb20577,0.927859
NapE component of periplasmic nitrate reductase,SMa1241,0.934108
PUTATIVE TRANSCRIPTION REGULATOR PROTEIN,SMc02172,0.937956
homogentisate 12-dioxygenase,SMc03208,0.939017
PUTATIVE METHYL VIOLOGEN/ETHIDIUM RESISTANCE TRANSMEMBRANE PROTEIN,SMc01523,0.946274
hypothetical protein,SMc01180,0.950953
hypothetical protein,SMa0439,0.954753
acetolactate synthase II large subunit,SMc04455,0.955133
PUTATIVE CARBON MONOXIDE DEHYDROGENASE LARGE SUBUNIT TRANSMEMBRANE PROTEIN,SMc03102,0.961676
NorE protein involved in nitric oxide reduction,SMa1279,0.961904
PROBABLE ALTERNATIVE CYTOCHROME C OXIDASE POLYPEPTIDE II TRANSMEMBRANE PROTEIN,SMc01982,0.964959
PROBABLE MANNITOL 2-DEHYDROGENASE PROTEIN,SMc01501,0.966055
putative transcriptional regulator protein,SMb20014,0.969217
FixN1 Heme b / copper cytochrome c oxidase subunit,SMa1220,0.970867
hypothetical protein,SMc01119,0.982174
putative sugar uptake ABC transporter periplasmic solute-binding protein precursor,SMb21345,0.983605
PUTATIVE SUGAR ABC TRANSPORTER PERMEASE PROTEIN,SMc02772,0.983637
PUTATIVE GLUTATHIONE S-TRANSFERASE PROTEIN,SMc02390,0.989201
possible transmembrane-transport protein,SMa0185,0.991649
hypothetical protein,SMa1608,0.993126
GLUTAMINE SYNTHETASE III PROTEIN,SMc02613,0.993376
glutathione-dependent formaldehyde-activating enzyme,SMb20186,0.994692
nitrous-oxide reductase precurser,SMa1182,0.995055
putative 3-hydroxyisobutyrate dehydrogenase protein,SMb20751,0.999844
hypothetical protein,SMa0128,1.00073
hypothetical protein,SMa0690,1.00156
probable xanthine dehydrogenase protein,SMb21286,1.00156
HYPOTHETICAL SIGNAL PEPTIDE PROTEIN,SMc00258,1.00158
hypothetical protein,SMa1176,1.00304
hypothetical protein,SMc02173,1.00408
putative ABC transporter periplasmic sugar-binding protein,SMb20316,1.00806
FixO1 c-type cytochrome,SMa1216,1.01169
hypothetical protein,SMc01425,1.01637
Azu1 pseudoazurin (blue copper protein),SMa1243,1.01949
coproporphyrinogen III oxidase,SMa1266,1.01995
putative cytochrome c protein,SMb20172,1.02026
hypothetical protein,SMa1146,1.02071
hypothetical membrane-anchored protein similar to putative translation initiation inhibitor,SMb21123,1.02127
hypothetical protein,SMa0633,1.02154
FixQ1 cbb3-type cytochrome oxidase,SMa1214,1.026
PUTATIVE CREA PROTEIN,SMc01465,1.02653
PUTATIVE PTERIN-4-ALPHA-CARBINOLAMINE DEHYDRATASE PROTEIN,SMc03834,1.03024
hypothetical protein,SMa1126,1.03547
putative tartronate semialdehyde reductase protein,SMb20679,1.03883
NifA transcriptional activator,SMa0815,1.03897
SyrM transcriptional regulator,SMa0849,1.04066
hypothetical protein,SMa1195,1.04082
hypothetical protein,SMc01759,1.04134
hypothetical protein,SMa0667,1.04301
conserved hypothetical dedA-like protein,SMa0250,1.04598
PUTATIVE PERIPLASMIC BINDING ABC TRANSPORTER PROTEIN,SMc02259,1.04611
hypothetical protein,SMc00117,1.04729
PROBABLE ATP-BINDING TRANSPORT ABC TRANSPORTER PROTEIN,SMc01499,1.05202
PUTATIVE ADENYLATE CYCLASE TRANSMEMBRANE PROTEIN,SMc02176,1.05238
FixP1 Di-heme cytochrome c,SMa1213,1.05369
hypothetical protein,SMa1122,1.05962
putative fatty acid desaturase,SMa0130,1.06032
hypothetical protein,SMa0291,1.06653
Probable NnrU protein,SMa1283,1.06654
hypothetical protein,SMa1153,1.06772
PUTATIVE SPERMIDINE/PUTRESCINE-BINDING PERIPLASMIC ABC TRANSPORTER PROTEIN,SMc01966,1.07423
PUTATIVE OXIDOREDUCTASE PROTEIN,SMc00264,1.0786
putative CycB2 cytochrome c552,SMa1170,1.0855
PUTATIVE TRANSPORT PROTEIN,SMc02892,1.08649
FixK-like regulatory protein,SMa1207,1.09017
hypothetical protein,SMa0763,1.09611
PUTATIVE PERMEASE TRANSMEMBRANE PROTEIN,SMc02512,1.09813
NapC membrane protein e-donor to periplasmic nitrate reductase,SMa1232,1.10041
hypothetical protein,SMa1927,1.10254
putative sensor histidine kinase protein,SMb20164,1.10342
hypothetical protein,SMa0252,1.10581
ALPHA-GLUCOSIDES TRANSPORT SYSTEM PERMEASE ABC TRANSPORTER PROTEIN,SMc03062,1.10707
hypothetical protein,SMa1149,1.10818
sorbitol dehydrogenase,SMc01500,1.10826
gamma-glutamyl kinase,SMc03252,1.10981
PUTATIVE ACYL-COA DEHYDROGENASE PROTEIN,SMc00977,1.11538
putative ABC transporter periplasmic solute-binding protein,SMb20056,1.12349
putative hydroxypyruvate isomerase protein,SMb20680,1.12751
putative methylcrotonoyl-CoA carboxylase biotinylated subunit protein,SMb21124,1.12802
hypothetical protein,SMc04319,1.13134
DegP4 protease like protein,SMa1128,1.1323
hypothetical protein,SMa0244,1.1343
hypothetical protein,SMb20663,1.13664
putative phosphoketolase,SMa1084,1.13692
putative GntR-family transcriptional regulator,SMa0246,1.13713
hypothetical protein,SMa0166,1.14009
putative formiminoglutamase protein,SMb21164,1.15494
hypothetical protein,SMc01427,1.15848
hypothetical protein,SMc00397,1.15852
dihydroxy-acid dehydratase,SMa0235,1.16306
PUTATIVE ACYL-COA DEHYDROGENASE PROTEIN,SMc02229,1.16879
MALEYLACETOACETATE ISOMERASE (GLUTATHIONE TRANSFERASE ZETA 1) PROTEIN,SMc03206,1.17847
AdhA1 alcohol,SMa1296,1.1815
dihydrolipoamide dehydrogenase,SMc03204,1.18342
HYPOTHETICAL/UNKNOWN PROTEIN,SMc00959,1.19343
glucose-1-phosphate adenylyltransferase,SMc03923,1.19848
hypothetical protein,SMa1261,1.19965
hypothetical protein,SMa0636,1.20139
Putative hydrolase protein,SMa1166,1.20149
hypothetical protein,SMc03781,1.20343
Putative transmembrane transport protein,SMa1447,1.212
hypothetical protein,SMa1231,1.21289
hypothetical protein,SMa1093,1.21411
PROBABLE ALDEHYDE DEHYDROGENASE PROTEIN,SMc02689,1.22083
hypothetical protein,SMc03780,1.22153
hypothetical protein,SMa1092,1.22196
hypothetical protein,SMa1134,1.22278
hypothetical protein,SMa1147,1.22501
hypothetical protein,SMb20303,1.22645
HISTIDINE-BINDING PERIPLASMIC SIGNAL PEPTIDE PROTEIN,SMc00672,1.23194
hypothetical protein,SMa1100,1.23225
PUTATIVE PERIPLASMIC BINDING ABC TRANSPORTER PROTEIN,SMc02171,1.23336
Putative cation transport P-type ATPase,SMa1163,1.23396
hypothetical protein,SMa1132,1.2342
PROBABLE SORBITOL/MANNITOL TRANSPORT INNER MEMBRANE PROTEIN,SMc01498,1.24459
hypothetical protein,SMa1095,1.24583
hypothetical protein,SMa1086,1.2522
PUTATIVE AROMATIC AMINO ACID DEGRADATION PROTEIN,SMc03207,1.25654
PROBABLE HEAT SHOCK PROTEIN,SMc04040,1.25698
hypothetical protein,SMa1082,1.27862
hypothetical protein,SMa2171,1.28949
PROBABLE ARGINASE PROTEIN,SMc03091,1.29078
dihydrolipoamide acetyltransferase,SMc03203,1.2986
hypothetical protein,SMa1131,1.29934
ALPHA-GLUCOSIDES-BINDING PERIPLASMIC ABC TRANSPORTER PROTEIN,SMc03061,1.30096
FixG Iron sulfur membrane protein,SMa1211,1.30609
PROBABLE 2-OXOISOVALERATE DEHYDROGENASE BETA SUBUNIT PROTEIN,SMc03202,1.31267
TspO Tryptophan rich sensory protein homologue,SMa1079,1.31996
hypothetical protein,SMc02505,1.32797
hypothetical protein,SMb20013,1.3285
hypothetical protein,SMa1169,1.32943
putative methylcrotonoyl-CoA carboxylase non-biotinylated subunit protein,SMb21122,1.33365
putative exported beta-lactamase protein,SMb21600,1.33629
PROBABLE SORBITOL/MANNITOL TRANSPORT INNER MEMBRANE TRANSMEMBRANE PROTEIN,SMc01497,1.33782
PUTATIVE IRON-BINDING PERIPLASMIC ABC TRANSPORTER PROTEIN,SMc02509,1.34703
PUTATIVE PERIPLASMIC BINDING PROTEIN,SMc00265,1.36045
hypothetical protein,SMa1151,1.36407
putative ABC transporter permease protein,SMa0105,1.3663
hypothetical protein,SMc01648,1.37668
putative MrcB penicillin binding protein B,SMa1905,1.37919
hypothetical oxidoreductase protein,SMb20097,1.38108
PROBABLE 2-OXOISOVALERATE DEHYDROGENASE ALPHA SUBUNIT PROTEIN,SMc03201,1.3956
probable alcohol,SMa1156,1.41544
hypothetical protein,SMa1178,1.42898
hypothetical protein,SMa0101,1.44635
PUTATIVE PERIPLASMIC BINDING PROTEIN,SMc01647,1.4656
hypothetical protein,SMa1158,1.48117
hypothetical protein,SMa1201,1.48279
FixT2 transcription regulator,SMa0760,1.49169
NosR Regulatory protein for N2O reductase,SMa1179,1.4987
putative efflux protein,SMb20346,1.53924
hypothetical protein,SMc03833,1.55328
putative amino acid uptake ABC transporter permease protein,SMb21136,1.56224
FixT1 Inhibitor of FixL autophosphorylation,SMa1226,1.5627
putative ABC transporter periplasmic solute-binding protein,SMa0104,1.56526
hypothetical protein,SMa1081,1.57122
PUTATIVE PERMEASE ABC TRANSPORTER PROTEIN,SMc03118,1.72477
hypothetical protein,SMb21676,1.74386
PUTATIVE IRON TRANSPORT ATP-BINDING ABC TRANSPORTER PROTEIN,SMc02508,1.85437
PUTATIVE ATP-BINDING ABC TRANSPORTER PROTEIN,SMc03119,1.86597
hypothetical protein,SMc02877,1.89383
PUTATIVE PERIPLASMIC BINDING ABC TRANSPORTER PROTEIN,SMc03121,1.93117
probable MrcA2 penicillin-binding protein,SMa2294,1.93352
PUTATIVE PERMEASE ABC TRANSPORTER PROTEIN,SMc03117,1.93663
hypothetical protein,SMc02875,1.96442
PUTATIVE ALCOHOL DEHYDROGENASE PROTEIN,SMc03116,2.0512
PUTATIVE ATP-BINDING ABC TRANSPORTER PROTEIN,SMc02869,2.07199
PUTATIVE ATP-BINDING ABC TRANSPORTER PROTEIN,SMc03120,2.08517
PROBABLE N-ACETYLGLUCOSAMINE-6-PHOSPHATE DEACETYLASE PROTEIN,SMc02878,2.20395
PUTATIVE PERMEASE ABC TRANSPORTER PROTEIN,SMc02871,2.26735
PUTATIVE PERMEASE ABC TRANSPORTER PROTEIN,SMc02872,2.3135
PUTATIVE AGMATINASE PROTEIN,SMc01967,2.40379
PUTATIVE OXIDOREDUCTASE PROTEIN,SMc02870,2.50722
hypothetical protein,SMc02874,2.51422
PUTATIVE PERIPLASMIC BINDING (SIGNAL PEPTIDE) ABC TRANSPORTER PROTEIN,SMc02873,2.53474
Probable thiolase,SMa1450,2.58345
PUTATIVE ACYL-COA DEHYDROGENASE PROTEIN,SMc01639,2.59925
PUTATIVE TRANSCRIPTION REGULATOR PROTEIN,SMc02876,2.63458
hypothetical protein,SMa1793,2.86151
hypothetical protein,SMc01637,3.30715
3-hydroxybutyryl-CoA dehydrogenase,SMc01638,3.42757
