"","x"
"1","SMA2213"
"2","SMa0142"
"3","SMa0160"
"4","SMa0291"
"5","SMa0292"
"6","SMa0293"
"7","SMa0439"
"8","SMa0604"
"9","SMa0630"
"10","SMa0631"
"11","SMa0633"
"12","SMa0636"
"13","SMa0661"
"14","SMa0667"
"15","SMa0669"
"16","SMa0670"
"17","SMa0682"
"18","SMa0684"
"19","SMa0690"
"20","SMa0693"
"21","SMa0695"
"22","SMa0744"
"23","SMa0745"
"24","SMa0760"
"25","SMa0762"
"26","SMa0763"
"27","SMa0765"
"28","SMa0766"
"29","SMa0769"
"30","SMa0814"
"31","SMa0815"
"32","SMa0819"
"33","SMa0822"
"34","SMa0825"
"35","SMa0848"
"36","SMa1077"
"37","SMa1078"
"38","SMa1079"
"39","SMa1081"
"40","SMa1082"
"41","SMa1086"
"42","SMa1087"
"43","SMa1092"
"44","SMa1093"
"45","SMa1095"
"46","SMa1100"
"47","SMa1101"
"48","SMa1118"
"49","SMa1120"
"50","SMa1126"
"51","SMa1128"
"52","SMa1131"
"53","SMa1132"
"54","SMa1134"
"55","SMa1136"
"56","SMa1146"
"57","SMa1147"
"58","SMa1149"
"59","SMa1151"
"60","SMa1153"
"61","SMa1154"
"62","SMa1155"
"63","SMa1156"
"64","SMa1158"
"65","SMa1163"
"66","SMa1166"
"67","SMa1168"
"68","SMa1169"
"69","SMa1170"
"70","SMa1171"
"71","SMa1176"
"72","SMa1178"
"73","SMa1179"
"74","SMa1182"
"75","SMa1194"
"76","SMa1195"
"77","SMa1198"
"78","SMa1200"
"79","SMa1201"
"80","SMa1207"
"81","SMa1210"
"82","SMa1211"
"83","SMa1213"
"84","SMa1214"
"85","SMa1216"
"86","SMa1220"
"87","SMa1223"
"88","SMa1225"
"89","SMa1226"
"90","SMa1231"
"91","SMa1232"
"92","SMa1240"
"93","SMa1241"
"94","SMa1243"
"95","SMa1250"
"96","SMa1252"
"97","SMa1253"
"98","SMa1254"
"99","SMa1259"
"100","SMa1261"
"101","SMa1266"
"102","SMa1273"
"103","SMa1276"
"104","SMa1279"
"105","SMa1283"
"106","SMa1288"
"107","SMa1289"
"108","SMa1291"
"109","SMa1292"
"110","SMa1294"
"111","SMa1296"
"112","SMa1351"
"113","SMa1353"
"114","SMa1354"
"115","SMa1438"
"116","SMa1440"
"117","SMa1495"
"118","SMa1857"
"119","SMa1860"
"120","SMa1961"
"121","SMa2209"
"122","SMa2217"
"123","SMa2219"
"124","SMa2233"
"125","SMb20013"
"126","SMb20025"
"127","SMb20026"
"128","SMb20027"
"129","SMb20054"
"130","SMb20097"
"131","SMb20099"
"132","SMb20100"
"133","SMb20103"
"134","SMb20117"
"135","SMb20127"
"136","SMb20128"
"137","SMb20198"
"138","SMb20199"
"139","SMb20200"
"140","SMb20201"
"141","SMb20202"
"142","SMb20212"
"143","SMb20297"
"144","SMb20325"
"145","SMb20348"
"146","SMb20349"
"147","SMb20436"
"148","SMb20484"
"149","SMb20485"
"150","SMb20488"
"151","SMb20489"
"152","SMb20522"
"153","SMb20556"
"154","SMb20593"
"155","SMb20647"
"156","SMb20654"
"157","SMb20661"
"158","SMb20662"
"159","SMb20663"
"160","SMb20664"
"161","SMb20668"
"162","SMb20669"
"163","SMb20670"
"164","SMb20746"
"165","SMb20755"
"166","SMb20756"
"167","SMb20757"
"168","SMb20758"
"169","SMb20771"
"170","SMb20838"
"171","SMb20876"
"172","SMb20902"
"173","SMb20903"
"174","SMb20935"
"175","SMb20941"
"176","SMb20944"
"177","SMb20954"
"178","SMb20955"
"179","SMb20984"
"180","SMb20985"
"181","SMb20987"
"182","SMb21097"
"183","SMb21122"
"184","SMb21123"
"185","SMb21162"
"186","SMb21163"
"187","SMb21164"
"188","SMb21174"
"189","SMb21175"
"190","SMb21176"
"191","SMb21177"
"192","SMb21183"
"193","SMb21188"
"194","SMb21284"
"195","SMb21285"
"196","SMb21292"
"197","SMb21294"
"198","SMb21295"
"199","SMb21296"
"200","SMb21310"
"201","SMb21317"
"202","SMb21318"
"203","SMb21353"
"204","SMb21354"
"205","SMb21379"
"206","SMb21395"
"207","SMb21396"
"208","SMb21402"
"209","SMb21429"
"210","SMb21431"
"211","SMb21432"
"212","SMb21467"
"213","SMb21480"
"214","SMb21487"
"215","SMb21488"
"216","SMb21494"
"217","SMb21565"
"218","SMb21566"
"219","SMb21673"
"220","SMc00103"
"221","SMc00117"
"222","SMc00120"
"223","SMc00137"
"224","SMc00186"
"225","SMc00264"
"226","SMc00265"
"227","SMc00286"
"228","SMc00302"
"229","SMc00359"
"230","SMc00368"
"231","SMc00374"
"232","SMc00402"
"233","SMc00434"
"234","SMc00550"
"235","SMc00612"
"236","SMc00620"
"237","SMc00666"
"238","SMc00668"
"239","SMc00669"
"240","SMc00670"
"241","SMc00671"
"242","SMc00672"
"243","SMc00673"
"244","SMc00765"
"245","SMc00777"
"246","SMc00787"
"247","SMc00788"
"248","SMc00857"
"249","SMc00912"
"250","SMc00913"
"251","SMc00975"
"252","SMc00976"
"253","SMc00981"
"254","SMc00995"
"255","SMc01016"
"256","SMc01017"
"257","SMc01036"
"258","SMc01053"
"259","SMc01054"
"260","SMc01092"
"261","SMc01095"
"262","SMc01106"
"263","SMc01154"
"264","SMc01169"
"265","SMc01180"
"266","SMc01268"
"267","SMc01309"
"268","SMc01310"
"269","SMc01313"
"270","SMc01314"
"271","SMc01337"
"272","SMc01488"
"273","SMc01489"
"274","SMc01510"
"275","SMc01511"
"276","SMc01512"
"277","SMc01513"
"278","SMc01514"
"279","SMc01515"
"280","SMc01516"
"281","SMc01517"
"282","SMc01542"
"283","SMc01547"
"284","SMc01613"
"285","SMc01615"
"286","SMc01621"
"287","SMc01626"
"288","SMc01627"
"289","SMc01628"
"290","SMc01629"
"291","SMc01631"
"292","SMc01632"
"293","SMc01657"
"294","SMc01658"
"295","SMc01659"
"296","SMc01723"
"297","SMc01728"
"298","SMc01759"
"299","SMc01814"
"300","SMc01815"
"301","SMc01816"
"302","SMc01821"
"303","SMc01822"
"304","SMc01823"
"305","SMc01824"
"306","SMc01842"
"307","SMc01848"
"308","SMc01880"
"309","SMc01881"
"310","SMc01882"
"311","SMc01883"
"312","SMc01957"
"313","SMc01981"
"314","SMc01982"
"315","SMc02034"
"316","SMc02052"
"317","SMc02067"
"318","SMc02110"
"319","SMc02111"
"320","SMc02150"
"321","SMc02165"
"322","SMc02178"
"323","SMc02221"
"324","SMc02242"
"325","SMc02266"
"326","SMc02338"
"327","SMc02351"
"328","SMc02373"
"329","SMc02374"
"330","SMc02382"
"331","SMc02397"
"332","SMc02433"
"333","SMc02435"
"334","SMc02577"
"335","SMc02602"
"336","SMc02604"
"337","SMc02605"
"338","SMc02606"
"339","SMc02608"
"340","SMc02634"
"341","SMc02655"
"342","SMc02656"
"343","SMc02687"
"344","SMc02688"
"345","SMc02735"
"346","SMc02769"
"347","SMc02770"
"348","SMc02771"
"349","SMc02772"
"350","SMc02773"
"351","SMc02775"
"352","SMc02776"
"353","SMc02819"
"354","SMc02824"
"355","SMc02826"
"356","SMc02857"
"357","SMc02882"
"358","SMc02900"
"359","SMc02982"
"360","SMc02983"
"361","SMc03005"
"362","SMc03006"
"363","SMc03014"
"364","SMc03015"
"365","SMc03019"
"366","SMc03020"
"367","SMc03021"
"368","SMc03023"
"369","SMc03024"
"370","SMc03025"
"371","SMc03030"
"372","SMc03035"
"373","SMc03040"
"374","SMc03042"
"375","SMc03069"
"376","SMc03112"
"377","SMc03116"
"378","SMc03117"
"379","SMc03118"
"380","SMc03120"
"381","SMc03121"
"382","SMc03124"
"383","SMc03129"
"384","SMc03152"
"385","SMc03161"
"386","SMc03162"
"387","SMc03167"
"388","SMc03168"
"389","SMc03211"
"390","SMc03244"
"391","SMc03251"
"392","SMc03252"
"393","SMc03253"
"394","SMc03794"
"395","SMc03802"
"396","SMc03803"
"397","SMc03813"
"398","SMc03814"
"399","SMc03815"
"400","SMc03816"
"401","SMc03817"
"402","SMc03844"
"403","SMc03857"
"404","SMc03858"
"405","SMc03876"
"406","SMc03878"
"407","SMc03879"
"408","SMc03902"
"409","SMc03939"
"410","SMc03950"
"411","SMc03968"
"412","SMc03970"
"413","SMc03998"
"414","SMc03999"
"415","SMc04020"
"416","SMc04026"
"417","SMc04040"
"418","SMc04047"
"419","SMc04048"
"420","SMc04059"
"421","SMc04091"
"422","SMc04188"
"423","SMc04202"
"424","SMc04206"
"425","SMc04207"
"426","SMc04208"
"427","SMc04259"
"428","SMc04292"
"429","SMc04316"
"430","SMc04317"
"431","SMc04325"
"432","SMc04402"
"433","SMc04406"
"434","SMa0387"
"435","SMa0581"
"436","SMa0583"
"437","SMa0585"
"438","SMa0680"
"439","SMa0683"
"440","SMa0687"
"441","SMa0689"
"442","SMa1122"
"443","SMa1256"
"444","SMa1447"
"445","SMa1450"
"446","SMa1452"
"447","SMa2201"
"448","SMa2207"
"449","SMa2211"
"450","SMa2221"
"451","SMa2223"
"452","SMa2225"
"453","SMa2337"
"454","SMa2414"
"455","SMb20316"
"456","SMb20587"
"457","SMb20589"
"458","SMb20616"
"459","SMb20729"
"460","SMb20943"
"461","SMb20962"
"462","SMb20963"
"463","SMb20986"
"464","SMb20988"
"465","SMb21094"
"466","SMb21095"
"467","SMb21096"
"468","SMb21098"
"469","SMb21099"
"470","SMb21165"
"471","SMb21166"
"472","SMb21399"
"473","SMb21551"
"474","SMb21636"
"475","SMb21637"
"476","SMb21638"
"477","SMb21640"
"478","SMc00171"
"479","SMc00225"
"480","SMc00781"
"481","SMc00801"
"482","SMc00978"
"483","SMc01030"
"484","SMc01031"
"485","SMc01032"
"486","SMc01033"
"487","SMc01035"
"488","SMc01037"
"489","SMc01747"
"490","SMc01907"
"491","SMc02123"
"492","SMc02124"
"493","SMc02161"
"494","SMc02344"
"495","SMc02345"
"496","SMc02346"
"497","SMc02347"
"498","SMc02349"
"499","SMc02350"
"500","SMc02447"
"501","SMc02552"
"502","SMc02562"
"503","SMc03119"
"504","SMc03128"
"505","SMc03208"
"506","SMc04452"
"507","SMa0580"
"508","SMa0849"
"509","SMa0854"
"510","SMa1957"
"511","SMa2297"
"512","SMa2412"
"513","SMb20021"
"514","SMb20036"
"515","SMb20079"
"516","SMb20167"
"517","SMb20313"
"518","SMb20314"
"519","SMb20315"
"520","SMb20588"
"521","SMb20611"
"522","SMb20660"
"523","SMb20680"
"524","SMb20681"
"525","SMb20684"
"526","SMb20825"
"527","SMb20880"
"528","SMb20909"
"529","SMb20910"
"530","SMb20928"
"531","SMb20945"
"532","SMb21281"
"533","SMb21283"
"534","SMb21286"
"535","SMb21287"
"536","SMb21293"
"537","SMb21345"
"538","SMb21435"
"539","SMb21438"
"540","SMb21468"
"541","SMc00025"
"542","SMc00198"
"543","SMc00320"
"544","SMc00321"
"545","SMc00332"
"546","SMc00337"
"547","SMc00363"
"548","SMc00427"
"549","SMc00567"
"550","SMc00568"
"551","SMc00569"
"552","SMc00703"
"553","SMc00704"
"554","SMc00714"
"555","SMc00809"
"556","SMc00812"
"557","SMc00815"
"558","SMc00816"
"559","SMc00872"
"560","SMc00874"
"561","SMc01152"
"562","SMc01179"
"563","SMc01286"
"564","SMc01299"
"565","SMc01323"
"566","SMc01333"
"567","SMc01369"
"568","SMc01557"
"569","SMc01600"
"570","SMc01756"
"571","SMc01779"
"572","SMc01819"
"573","SMc01855"
"574","SMc01967"
"575","SMc02084"
"576","SMc02085"
"577","SMc02136"
"578","SMc02310"
"579","SMc02311"
"580","SMc02376"
"581","SMc02388"
"582","SMc02389"
"583","SMc02417"
"584","SMc02448"
"585","SMc02467"
"586","SMc02513"
"587","SMc02518"
"588","SMc02519"
"589","SMc02520"
"590","SMc02521"
"591","SMc02610"
"592","SMc02611"
"593","SMc02612"
"594","SMc02613"
"595","SMc02616"
"596","SMc02617"
"597","SMc02618"
"598","SMc02619"
"599","SMc02686"
"600","SMc02726"
"601","SMc02866"
"602","SMc02867"
"603","SMc02868"
"604","SMc02887"
"605","SMc02888"
"606","SMc02892"
"607","SMc02911"
"608","SMc02913"
"609","SMc03100"
"610","SMc03172"
"611","SMc03173"
"612","SMc03209"
"613","SMc03831"
"614","SMc03834"
"615","SMc03863"
"616","SMc03881"
"617","SMc03969"
"618","SMc03990"
"619","SMc03994"
"620","SMc04003"
"621","SMc04032"
"622","SMc04147"
"623","SMc04148"
"624","SMc04149"
"625","SMc04150"
"626","SMc04151"
"627","SMc04152"
"628","SMc04153"
"629","SMc04154"
"630","SMc04209"
"631","SMc04276"
"632","SMc04319"
"633","SMc04320"
"634","SMc04363"
"635","SMc04383"
"636","SMc04436"
"637","SMc_R0074"
"638","SMa1096"
"639","SMa2075"
"640","SMa2299"
"641","SMb20530"
"642","SMb20551"
"643","SMb20570"
"644","SMb20573"
"645","SMb20591"
"646","SMb20946"
"647","SMb20960"
"648","SMb21433"
"649","SMb21549"
"650","SMb21550"
"651","SMb21691"
"652","SMc00092"
"653","SMc00296"
"654","SMc00297"
"655","SMc00367"
"656","SMc00529"
"657","SMc00591"
"658","SMc01094"
"659","SMc01216"
"660","SMc01704"
"661","SMc02240"
"662","SMc02390"
"663","SMc02479"
"664","SMc02480"
"665","SMc02481"
"666","SMc02503"
"667","SMc03060"
"668","SMc03068"
"669","SMc03070"
"670","SMa0045"
"671","SMa0058"
"672","SMa0067"
"673","SMa0081"
"674","SMa0252"
"675","SMa0302"
"676","SMa0369"
"677","SMa0389"
"678","SMa0391"
"679","SMa0392"
"680","SMa0394"
"681","SMa0398"
"682","SMa0400"
"683","SMa0402"
"684","SMa0403"
"685","SMa0404"
"686","SMa0506"
"687","SMa0522"
"688","SMa0767"
"689","SMa0771"
"690","SMa0772"
"691","SMa0799"
"692","SMa0810"
"693","SMa0811"
"694","SMa0943"
"695","SMa0945"
"696","SMa1445"
"697","SMa1462"
"698","SMa1507"
"699","SMa1635"
"700","SMa2004"
"701","SMa2129"
"702","SMb20108"
"703","SMb20164"
"704","SMb20234"
"705","SMb20303"
"706","SMb20365"
"707","SMb20383"
"708","SMb20428"
"709","SMb20464"
"710","SMb20490"
"711","SMb20602"
"712","SMb20603"
"713","SMb20604"
"714","SMb20630"
"715","SMb20651"
"716","SMb20728"
"717","SMb20760"
"718","SMb20761"
"719","SMb20762"
"720","SMb20764"
"721","SMb20765"
"722","SMb20820"
"723","SMb21009"
"724","SMb21026"
"725","SMb21114"
"726","SMb21115"
"727","SMb21135"
"728","SMb21196"
"729","SMb21199"
"730","SMb21221"
"731","SMb21235"
"732","SMb21236"
"733","SMb21343"
"734","SMb21411"
"735","SMb21526"
"736","SMb21529"
"737","SMb21540"
"738","SMb21572"
"739","SMb21652"
"740","SMb21655"
"741","SMb21707"
"742","SMc00070"
"743","SMc00084"
"744","SMc00105"
"745","SMc00158"
"746","SMc00159"
"747","SMc00195"
"748","SMc00323"
"749","SMc00325"
"750","SMc00335"
"751","SMc00346"
"752","SMc00357"
"753","SMc00565"
"754","SMc00566"
"755","SMc00611"
"756","SMc00641"
"757","SMc00674"
"758","SMc00819"
"759","SMc00821"
"760","SMc00924"
"761","SMc00998"
"762","SMc01000"
"763","SMc01127"
"764","SMc01146"
"765","SMc01282"
"766","SMc01290"
"767","SMc01291"
"768","SMc01292"
"769","SMc01300"
"770","SMc01301"
"771","SMc01305"
"772","SMc01318"
"773","SMc01319"
"774","SMc01456"
"775","SMc01634"
"776","SMc01647"
"777","SMc01652"
"778","SMc01774"
"779","SMc01820"
"780","SMc01826"
"781","SMc01827"
"782","SMc01828"
"783","SMc01843"
"784","SMc01847"
"785","SMc01869"
"786","SMc01946"
"787","SMc01947"
"788","SMc02025"
"789","SMc02061"
"790","SMc02100"
"791","SMc02101"
"792","SMc02140"
"793","SMc02141"
"794","SMc02142"
"795","SMc02146"
"796","SMc02164"
"797","SMc02258"
"798","SMc02259"
"799","SMc02278"
"800","SMc02324"
"801","SMc02343"
"802","SMc02356"
"803","SMc02357"
"804","SMc02359"
"805","SMc02365"
"806","SMc02367"
"807","SMc02368"
"808","SMc02371"
"809","SMc02600"
"810","SMc02615"
"811","SMc02692"
"812","SMc02709"
"813","SMc02755"
"814","SMc03108"
"815","SMc03125"
"816","SMc03126"
"817","SMc03127"
"818","SMc03130"
"819","SMc03157"
"820","SMc03243"
"821","SMc03806"
"822","SMc03807"
"823","SMc03859"
"824","SMc03891"
"825","SMc04011"
"826","SMc04037"
"827","SMc04045"
"828","SMc04088"
"829","SMc04093"
"830","SMc04114"
"831","SMc04246"
"832","SMc04280"
"833","SMc04299"
"834","SMc04300"
"835","SMc04350"
"836","SMc04351"
"837","SMc04390"
"838","SMc04405"
"839","SMc02366"
"840","SMc01458"
"841","SMc01457"
"842","SMb21010"
"843","SMb21567"
"844","SMc04400"
"845","SMb21440"
"846","SMc04399"
"847","SMc04397"
"848","SMc01580"
"849","SMb21190"
"850","SMc00062"
"851","SMc02353"
"852","SMb21189"
"853","SMc02352"
"854","SMb20359"
"855","SMc00063"
"856","SMc02560"
"857","SMb20999"
"858","SMb20998"
"859","SMb21191"
"860","SMc00096"
"861","SMb21491"
"862","SMb20360"
"863","SMc01581"
"864","SMc00284"
"865","SMc01465"
"866","SMc02401"
"867","SMb21011"
"868","SMc02360"
"869","SMb20300"
"870","SMb21690"
"871","SMa1705"
"872","SMc04267"
"873","SMc00281"
"874","SMc02355"
"875","SMc02358"
"876","SMc02774"
"877","SMb20748"
"878","SMc02727"
"879","SMc01464"
"880","SMa1386"
"881","SMc02833"
"882","SMc00404"
"883","SMa1057"
"884","SMc02412"
"885","SMb20809"
"886","SMc01107"
"887","SMa2303"
"888","SMc01765"
"889","SMa0226"
"890","SMc01560"
"891","SMc02514"
"892","SMb20829"
"893","SMa0355"
"894","SMc02413"
"895","SMb20770"
"896","SMa1846"
"897","SMc04236"
"898","SMb20769"
"899","SMa0753"
"900","SMc04135"
"901","SMb21025"
"902","SMa1191"
"903","SMc01175"
"904","SMa1381"
"905","SMc00470"
"906","SMc01995"
"907","SMb20950"
"908","SMb20429"
"909","SMb21509"
"910","SMc02409"
"911","SMb20708"
"912","SMc01559"
"913","SMc00239"
"914","SMc00712"
"915","SMb21648"
"916","SMc01556"
"917","SMc00277"
"918","SMc02915"
"919","SMb20328"
"920","SMa0748"
"921","SMc00283"
"922","SMa2061"
"923","SMa1379"
"924","SMb20810"
"925","SMa1793"
"926","SMa2063"
"927","SMc04173"
"928","SMa1377"
"929","SMb20361"
"930","SMc04328"
"931","SMa2259"
"932","SMa1397"
"933","SMb21569"
"934","SMb20317"
"935","SMc02326"
"936","SMb21024"
"937","SMc02403"
"938","SMc04446"
"939","SMc03153"
"940","SMc00814"
"941","SMb20158"
"942","SMc03151"
"943","SMc00064"
"944","SMc00715"
"945","SMc02856"
"946","SMc00613"
"947","SMc01409"
"948","SMc02517"
"949","SMb20575"
"950","SMb20374"
"951","SMc00658"
"952","SMb20707"
"953","SMb21247"
"954","SMc00340"
"955","SMc02834"
"956","SMc_R0063"
"957","SMc04238"
"958","SMc00104"
"959","SMa0486"
"960","SMc00353"
"961","SMa1587"
"962","SMb20434"
"963","SMc02854"
"964","SMa1896"
"965","SMb20427"
"966","SMc04239"
"967","SMa1797"
"968","SMb20318"
"969","SMc02372"
"970","SMc00539"
"971","SMc03027"
"972","SMc04409"
"973","SMa0104"
"974","SMc00986"
"975","SMc01795"
"976","SMb21479"
"977","SMc02582"
"978","SMb20032"
"979","SMc04332"
"980","SMc02718"
"981","SMc04434"
"982","SMb21678"
"983","SMc03983"
"984","SMa0101"
"985","SMa0093"
"986","SMb21552"
"987","SMb20724"
"988","SMa2073"
"989","SMb21599"
"990","SMc00640"
"991","SMb21278"
"992","SMa2294"
"993","SMc01405"
"994","SMa2341"
"995","SMb21600"
"996","SMc01109"
"997","SMb21277"
"998","SMb21276"
"999","SMc00090"
"1000","SMb21274"
"1001","SMc00091"
"1002","SMb21273"
"1003","SMa2408"
"1004","SMa2410"
"1005","SMa2339"
"1006","SMa2406"
"1007","SMa2404"
"1008","SMb20983"
"1009","SMa2402"
"1010","SMa2400"
"1011","SMc00147"
"1012","SMc00830"
"1013","SMc00977"
"1014","SMc01540"
"1015","SMc02229"
"1016","SMc02317"
"1017","SMc02638"
"1018","SMc02874"
"1019","SMa0046"
"1020","SMa0229"
"1021","SMa0554"
"1022","SMa0697"
"1023","SMa0921"
"1024","SMa0983"
"1025","SMa1038"
"1026","SMa1041"
"1027","SMa1043"
"1028","SMa1099"
"1029","SMa1124"
"1030","SMa1183"
"1031","SMa1272"
"1032","SMa1516"
"1033","SMa1519"
"1034","SMa1545"
"1035","SMa1550"
"1036","SMa1595"
"1037","SMa1678"
"1038","SMa1683"
"1039","SMa1688"
"1040","SMa1907"
"1041","SMa1913"
"1042","SMa2315"
"1043","SMb20005"
"1044","SMb20197"
"1045","SMb20264"
"1046","SMb20267"
"1047","SMb20270"
"1048","SMb20542"
"1049","SMb20555"
"1050","SMb20596"
"1051","SMb20615"
"1052","SMb20705"
"1053","SMb20716"
"1054","SMb20751"
"1055","SMb21330"
"1056","SMb21456"
"1057","SMb21585"
"1058","SMb21592"
"1059","SMb21639"
"1060","SMc00033"
"1061","SMc00118"
"1062","SMc00135"
"1063","SMc00181"
"1064","SMc00191"
"1065","SMc00251"
"1066","SMc00333"
"1067","SMc00365"
"1068","SMc00366"
"1069","SMc00758"
"1070","SMc00759"
"1071","SMc00791"
"1072","SMc00841"
"1073","SMc00842"
"1074","SMc00891"
"1075","SMc01251"
"1076","SMc01302"
"1077","SMc01306"
"1078","SMc01308"
"1079","SMc01380"
"1080","SMc01562"
"1081","SMc01583"
"1082","SMc01610"
"1083","SMc01620"
"1084","SMc01705"
"1085","SMc01978"
"1086","SMc02051"
"1087","SMc02122"
"1088","SMc02134"
"1089","SMc02166"
"1090","SMc02172"
"1091","SMc02181"
"1092","SMc02206"
"1093","SMc02217"
"1094","SMc02255"
"1095","SMc02305"
"1096","SMc02483"
"1097","SMc02488"
"1098","SMc02694"
"1099","SMc02835"
"1100","SMc02842"
"1101","SMc02845"
"1102","SMc02898"
"1103","SMc03091"
"1104","SMc03228"
"1105","SMc03241"
"1106","SMc03779"
"1107","SMc03797"
"1108","SMc03830"
"1109","SMc03924"
"1110","SMc03956"
"1111","SMc04031"
"1112","SMc04033"
"1113","SMc04060"
"1114","SMc04205"
"1115","SMc04318"
"1116","SMc04327"
"1117","SMc04335"
"1118","SMc04407"
"1119","SMc_R0066"
"1120","SMc_R0067"
"1121","SMc_R0077"
"1122","SMa0298"
"1123","SMa1084"
"1124","SMa1236"
"1125","SMa2151"
"1126","SMb20072"
"1127","SMb20170"
"1128","SMb20171"
"1129","SMb20186"
"1130","SMb20605"
"1131","SMb20673"
"1132","SMb20674"
"1133","SMb20706"
"1134","SMb20712"
"1135","SMb20899"
"1136","SMb20900"
"1137","SMb21035"
"1138","SMb21181"
"1139","SMb21182"
"1140","SMb21197"
"1141","SMb21198"
"1142","SMc00097"
"1143","SMc00409"
"1144","SMc00431"
"1145","SMc00432"
"1146","SMc00433"
"1147","SMc00789"
"1148","SMc00790"
"1149","SMc01163"
"1150","SMc01165"
"1151","SMc01166"
"1152","SMc01202"
"1153","SMc01203"
"1154","SMc01205"
"1155","SMc01207"
"1156","SMc01343"
"1157","SMc01496"
"1158","SMc01497"
"1159","SMc01498"
"1160","SMc01543"
"1161","SMc01576"
"1162","SMc02057"
"1163","SMc02091"
"1164","SMc02093"
"1165","SMc02098"
"1166","SMc02099"
"1167","SMc02156"
"1168","SMc02167"
"1169","SMc02169"
"1170","SMc02171"
"1171","SMc02689"
"1172","SMc03004"
"1173","SMc03037"
"1174","SMc03038"
"1175","SMc03061"
"1176","SMc03780"
"1177","SMc04164"
"1178","SMc04343"
"1179","SMc04384"
"1180","SMc04385"
"1181","SMc04386"
"1182","SMa0025"
"1183","SMa0124"
"1184","SMa0612"
"1185","SMa1076"
"1186","SMa1521"
"1187","SMa1898"
"1188","SMa2347"
"1189","SMb20150"
"1190","SMb20154"
"1191","SMb20155"
"1192","SMb20156"
"1193","SMb20157"
"1194","SMb20172"
"1195","SMb20255"
"1196","SMb20263"
"1197","SMb20368"
"1198","SMb20711"
"1199","SMb20713"
"1200","SMb20714"
"1201","SMb20818"
"1202","SMb20819"
"1203","SMc00005"
"1204","SMc00139"
"1205","SMc00187"
"1206","SMc00287"
"1207","SMc00397"
"1208","SMc00484"
"1209","SMc00494"
"1210","SMc00522"
"1211","SMc00574"
"1212","SMc00590"
"1213","SMc00646"
"1214","SMc00654"
"1215","SMc00657"
"1216","SMc00786"
"1217","SMc00925"
"1218","SMc01025"
"1219","SMc01093"
"1220","SMc01160"
"1221","SMc01164"
"1222","SMc01209"
"1223","SMc01296"
"1224","SMc01297"
"1225","SMc01320"
"1226","SMc01321"
"1227","SMc01344"
"1228","SMc01364"
"1229","SMc01446"
"1230","SMc01469"
"1231","SMc01525"
"1232","SMc01778"
"1233","SMc01804"
"1234","SMc01876"
"1235","SMc02049"
"1236","SMc02050"
"1237","SMc02254"
"1238","SMc02470"
"1239","SMc02471"
"1240","SMc02636"
"1241","SMc02695"
"1242","SMc02780"
"1243","SMc02873"
"1244","SMc02875"
"1245","SMc02876"
"1246","SMc03007"
"1247","SMc03039"
"1248","SMc03046"
"1249","SMc03048"
"1250","SMc03781"
"1251","SMc04000"
"1252","SMc04252"
"1253","SMc04263"
"1254","SMc04278"
"1255","SMc04289"
"1256","SMc04352"
"1257","SMa0034"
"1258","SMa0125"
"1259","SMa0228"
"1260","SMa0244"
"1261","SMa0247"
"1262","SMa0664"
"1263","SMa0678"
"1264","SMa0699"
"1265","SMa0776"
"1266","SMa0809"
"1267","SMa0816"
"1268","SMa1004"
"1269","SMa1091"
"1270","SMa1097"
"1271","SMa1103"
"1272","SMa1209"
"1273","SMa1247"
"1274","SMa1255"
"1275","SMa1269"
"1276","SMa1285"
"1277","SMa1400"
"1278","SMa1586"
"1279","SMa1602"
"1280","SMa1697"
"1281","SMa2245"
"1282","SMb20116"
"1283","SMb20194"
"1284","SMb20196"
"1285","SMb20346"
"1286","SMb20677"
"1287","SMb20678"
"1288","SMb20679"
"1289","SMb20726"
"1290","SMb20951"
"1291","SMb21000"
"1292","SMb21113"
"1293","SMb21186"
"1294","SMb21300"
"1295","SMb21314"
"1296","SMb21712"
"1297","SMc00003"
"1298","SMc00006"
"1299","SMc00009"
"1300","SMc00012"
"1301","SMc00021"
"1302","SMc00140"
"1303","SMc00234"
"1304","SMc00293"
"1305","SMc00294"
"1306","SMc00362"
"1307","SMc00364"
"1308","SMc00373"
"1309","SMc00472"
"1310","SMc00526"
"1311","SMc00531"
"1312","SMc00532"
"1313","SMc00555"
"1314","SMc00571"
"1315","SMc00585"
"1316","SMc00594"
"1317","SMc00638"
"1318","SMc00643"
"1319","SMc00655"
"1320","SMc00709"
"1321","SMc00764"
"1322","SMc00774"
"1323","SMc00868"
"1324","SMc00869"
"1325","SMc00908"
"1326","SMc00919"
"1327","SMc00926"
"1328","SMc00949"
"1329","SMc00999"
"1330","SMc01133"
"1331","SMc01159"
"1332","SMc01215"
"1333","SMc01233"
"1334","SMc01237"
"1335","SMc01241"
"1336","SMc01242"
"1337","SMc01243"
"1338","SMc01271"
"1339","SMc01283"
"1340","SMc01285"
"1341","SMc01287"
"1342","SMc01288"
"1343","SMc01289"
"1344","SMc01293"
"1345","SMc01294"
"1346","SMc01295"
"1347","SMc01298"
"1348","SMc01303"
"1349","SMc01312"
"1350","SMc01316"
"1351","SMc01317"
"1352","SMc01322"
"1353","SMc01345"
"1354","SMc01431"
"1355","SMc01523"
"1356","SMc01524"
"1357","SMc01569"
"1358","SMc01578"
"1359","SMc01605"
"1360","SMc01719"
"1361","SMc01758"
"1362","SMc01760"
"1363","SMc01785"
"1364","SMc01803"
"1365","SMc01812"
"1366","SMc01834"
"1367","SMc02087"
"1368","SMc02094"
"1369","SMc02163"
"1370","SMc02442"
"1371","SMc02443"
"1372","SMc02492"
"1373","SMc02509"
"1374","SMc02646"
"1375","SMc02707"
"1376","SMc02717"
"1377","SMc02725"
"1378","SMc02872"
"1379","SMc03028"
"1380","SMc03744"
"1381","SMc03770"
"1382","SMc03772"
"1383","SMc03773"
"1384","SMc03791"
"1385","SMc03833"
"1386","SMc03880"
"1387","SMc04172"
"1388","SMc04227"
"1389","SMc04234"
"1390","SMc04388"
"1391","SMa2041"
"1392","SMb20028"
"1393","SMb20039"
"1394","SMb20347"
"1395","SMb20648"
"1396","SMb20727"
"1397","SMc00141"
"1398","SMc_R0072"
"1399","SMc00095"
"1400","SMc00093"
"1401","SMc00094"
"1402","SMc00127"
"1403","SMc00031"
"1404","SMc01226"
"1405","SMc00990"
"1406","SMb21329"
"1407","SMc00399"
"1408","SMa2275"
"1409","SMc01611"
"1410","SMb20495"
"1411","SMc02797"
"1412","SMb21355"
"1413","SMc00252"
"1414","SMc01470"
"1415","SMc03967"
"1416","SMb20614"
"1417","SMa1639"
"1418","SMc02497"
"1419","SMc02851"
"1420","SMc03827"
"1421","SMb20745"
"1422","SMa1747"
"1423","SMc01278"
"1424","SMb20455"
"1425","SMc03900"
"1426","SMc04310"
"1427","SMb21374"
"1428","SMb20375"
"1429","SMc01227"
"1430","SMc00123"
"1431","SMc01742"
"1432","SMb21280"
"1433","SMa0861"
"1434","SMb20947"
"1435","SMc01090"
"1436","SMb20230"
"1437","SMc01573"
"1438","SMc02073"
"1439","SMb20824"
"1440","SMc00737"
"1441","SMc02798"
"1442","SMc02463"
"1443","SMc02788"
"1444","SMc03242"
"1445","SMc01837"
"1446","SMc04449"
"1447","SMa2037"
"1448","SMa2241"
"1449","SMc01134"
"1450","SMc03064"
"1451","SMc02148"
"1452","SMc00761"
"1453","SMa1755"
"1454","SMc03169"
"1455","SMc01780"
"1456","SMc02119"
"1457","SMc04396"
"1458","SMc03135"
"1459","SMa0011"
"1460","SMb20284"
"1461","SMc03233"
"1462","SMc03063"
"1463","SMc00589"
"1464","SMc00762"
"1465","SMc03171"
"1466","SMb20508"
"1467","SMc00168"
"1468","SMb20049"
"1469","SMc03869"
"1470","SMc03065"
"1471","SMb20018"
"1472","SMb20752"
"1473","SMb20577"
"1474","SMc04455"
"1475","SMc03102"
"1476","SMc01501"
"1477","SMb20014"
"1478","SMc01119"
"1479","SMa0185"
"1480","SMa1608"
"1481","SMa0128"
"1482","SMc00258"
"1483","SMc02173"
"1484","SMc01425"
"1485","SMa0250"
"1486","SMc01499"
"1487","SMc02176"
"1488","SMa0130"
"1489","SMc01966"
"1490","SMc02512"
"1491","SMa1927"
"1492","SMc03062"
"1493","SMc01500"
"1494","SMb20056"
"1495","SMb21124"
"1496","SMa0246"
"1497","SMa0166"
"1498","SMc01427"
"1499","SMa0235"
"1500","SMc03206"
"1501","SMc03204"
"1502","SMc00959"
"1503","SMc03923"
"1504","SMc03207"
"1505","SMa2171"
"1506","SMc03203"
"1507","SMc03202"
"1508","SMc02505"
"1509","SMa0105"
"1510","SMc01648"
"1511","SMa1905"
"1512","SMc03201"
"1513","SMb21136"
"1514","SMb21676"
"1515","SMc02508"
"1516","SMc02877"
"1517","SMc02869"
"1518","SMc02878"
"1519","SMc02871"
"1520","SMc02870"
"1521","SMc01639"
"1522","SMc01637"
"1523","SMc01638"
"1524","SMa0015"
"1525","SMa0041"
"1526","SMa0065"
"1527","SMa0280"
"1528","SMa0303"
"1529","SMa0308"
"1530","SMa0347"
"1531","SMa0407"
"1532","SMa0520"
"1533","SMa0558"
"1534","SMa0615"
"1535","SMa0617"
"1536","SMa0621"
"1537","SMa0626"
"1538","SMa0719"
"1539","SMa0789"
"1540","SMa0791"
"1541","SMa0883"
"1542","SMa0955"
"1543","SMa0972"
"1544","SMa1008"
"1545","SMa1073"
"1546","SMa1335"
"1547","SMa1413"
"1548","SMa1503"
"1549","SMa1529"
"1550","SMa1533"
"1551","SMa1539"
"1552","SMa1552"
"1553","SMa1582"
"1554","SMa1585"
"1555","SMa1632"
"1556","SMa1660"
"1557","SMa1676"
"1558","SMa1677"
"1559","SMa1696"
"1560","SMa1717"
"1561","SMa1720"
"1562","SMa1726"
"1563","SMa1754"
"1564","SMa1780"
"1565","SMa1821"
"1566","SMa1881"
"1567","SMa1884"
"1568","SMa1921"
"1569","SMa1933"
"1570","SMa1943"
"1571","SMa1948"
"1572","SMa1998"
"1573","SMa2008"
"1574","SMa2015"
"1575","SMa2019"
"1576","SMa2033"
"1577","SMa2034"
"1578","SMa2119"
"1579","SMa2121"
"1580","SMa2229"
"1581","SMa2265"
"1582","SMa2273"
"1583","SMa2323"
"1584","SMa2357"
"1585","SMa2371"
"1586","SMb20009"
"1587","SMb20031"
"1588","SMb20070"
"1589","SMb20098"
"1590","SMb20149"
"1591","SMb20160"
"1592","SMb20211"
"1593","SMb20256"
"1594","SMb20293"
"1595","SMb20331"
"1596","SMb20345"
"1597","SMb20367"
"1598","SMb20369"
"1599","SMb20406"
"1600","SMb20473"
"1601","SMb20483"
"1602","SMb20507"
"1603","SMb20509"
"1604","SMb20513"
"1605","SMb20517"
"1606","SMb20546"
"1607","SMb20550"
"1608","SMb20576"
"1609","SMb20613"
"1610","SMb20620"
"1611","SMb20634"
"1612","SMb20682"
"1613","SMb20688"
"1614","SMb20759"
"1615","SMb20786"
"1616","SMb20787"
"1617","SMb20811"
"1618","SMb20843"
"1619","SMb20846"
"1620","SMb20877"
"1621","SMb20887"
"1622","SMb20888"
"1623","SMb20913"
"1624","SMb20914"
"1625","SMb20994"
"1626","SMb21047"
"1627","SMb21051"
"1628","SMb21103"
"1629","SMb21121"
"1630","SMb21137"
"1631","SMb21154"
"1632","SMb21179"
"1633","SMb21185"
"1634","SMb21201"
"1635","SMb21206"
"1636","SMb21208"
"1637","SMb21212"
"1638","SMb21220"
"1639","SMb21243"
"1640","SMb21257"
"1641","SMb21270"
"1642","SMb21344"
"1643","SMb21359"
"1644","SMb21365"
"1645","SMb21385"
"1646","SMb21410"
"1647","SMb21414"
"1648","SMb21418"
"1649","SMb21498"
"1650","SMb21516"
"1651","SMb21530"
"1652","SMb21535"
"1653","SMb21544"
"1654","SMb21587"
"1655","SMb21674"
"1656","SMb21689"
"1657","SMc00032"
"1658","SMc00065"
"1659","SMc00080"
"1660","SMc00098"
"1661","SMc00101"
"1662","SMc00106"
"1663","SMc00109"
"1664","SMc00115"
"1665","SMc00156"
"1666","SMc00167"
"1667","SMc00179"
"1668","SMc00247"
"1669","SMc00254"
"1670","SMc00255"
"1671","SMc00259"
"1672","SMc00342"
"1673","SMc00389"
"1674","SMc00419"
"1675","SMc00428"
"1676","SMc00429"
"1677","SMc00467"
"1678","SMc00473"
"1679","SMc00476"
"1680","SMc00485"
"1681","SMc00486"
"1682","SMc00492"
"1683","SMc00516"
"1684","SMc00572"
"1685","SMc00595"
"1686","SMc00617"
"1687","SMc00664"
"1688","SMc00713"
"1689","SMc00779"
"1690","SMc00793"
"1691","SMc00805"
"1692","SMc00850"
"1693","SMc00853"
"1694","SMc00856"
"1695","SMc00866"
"1696","SMc00876"
"1697","SMc00904"
"1698","SMc00931"
"1699","SMc00942"
"1700","SMc00945"
"1701","SMc00956"
"1702","SMc00960"
"1703","SMc01006"
"1704","SMc01010"
"1705","SMc01015"
"1706","SMc01103"
"1707","SMc01104"
"1708","SMc01170"
"1709","SMc01174"
"1710","SMc01183"
"1711","SMc01211"
"1712","SMc01225"
"1713","SMc01228"
"1714","SMc01257"
"1715","SMc01428"
"1716","SMc01430"
"1717","SMc01447"
"1718","SMc01463"
"1719","SMc01535"
"1720","SMc01549"
"1721","SMc01585"
"1722","SMc01594"
"1723","SMc01597"
"1724","SMc01630"
"1725","SMc01653"
"1726","SMc01654"
"1727","SMc01744"
"1728","SMc01755"
"1729","SMc01757"
"1730","SMc01813"
"1731","SMc01817"
"1732","SMc01825"
"1733","SMc01902"
"1734","SMc01908"
"1735","SMc01983"
"1736","SMc02079"
"1737","SMc02162"
"1738","SMc02220"
"1739","SMc02223"
"1740","SMc02225"
"1741","SMc02227"
"1742","SMc02228"
"1743","SMc02256"
"1744","SMc02257"
"1745","SMc02292"
"1746","SMc02315"
"1747","SMc02342"
"1748","SMc02391"
"1749","SMc02446"
"1750","SMc02464"
"1751","SMc02469"
"1752","SMc02472"
"1753","SMc02525"
"1754","SMc02575"
"1755","SMc02576"
"1756","SMc02594"
"1757","SMc02599"
"1758","SMc02603"
"1759","SMc02696"
"1760","SMc02728"
"1761","SMc02729"
"1762","SMc02732"
"1763","SMc02734"
"1764","SMc02736"
"1765","SMc02785"
"1766","SMc02799"
"1767","SMc02800"
"1768","SMc02804"
"1769","SMc02817"
"1770","SMc02818"
"1771","SMc02859"
"1772","SMc02860"
"1773","SMc02883"
"1774","SMc02885"
"1775","SMc02886"
"1776","SMc02891"
"1777","SMc02902"
"1778","SMc02978"
"1779","SMc03056"
"1780","SMc03132"
"1781","SMc03138"
"1782","SMc03150"
"1783","SMc03159"
"1784","SMc03160"
"1785","SMc03177"
"1786","SMc03197"
"1787","SMc03234"
"1788","SMc03235"
"1789","SMc03236"
"1790","SMc03246"
"1791","SMc03764"
"1792","SMc03801"
"1793","SMc03824"
"1794","SMc03836"
"1795","SMc03837"
"1796","SMc03838"
"1797","SMc03866"
"1798","SMc03870"
"1799","SMc03873"
"1800","SMc03926"
"1801","SMc04163"
"1802","SMc04167"
"1803","SMc04171"
"1804","SMc04174"
"1805","SMc04180"
"1806","SMc04181"
"1807","SMc04190"
"1808","SMc04251"
"1809","SMc04302"
"1810","SMc04305"
"1811","SMc04309"
"1812","SMc04315"
"1813","SMc04321"
"1814","SMc04323"
"1815","SMc04336"
"1816","SMc04403"
"1817","SMc04411"
"1818","SMc04448"
"1819","SMc04478"
"1820","SMa0002"
"1821","SMa0017"
"1822","SMa0022"
"1823","SMa0036"
"1824","SMa0044"
"1825","SMa0064"
"1826","SMa0089"
"1827","SMa0110"
"1828","SMa0126"
"1829","SMa0134"
"1830","SMa0144"
"1831","SMa0146"
"1832","SMa0162"
"1833","SMa0168"
"1834","SMa0181"
"1835","SMa0187"
"1836","SMa0198"
"1837","SMa0199"
"1838","SMa0232"
"1839","SMa0257"
"1840","SMa0260"
"1841","SMa0263"
"1842","SMa0275"
"1843","SMa0277"
"1844","SMa0281"
"1845","SMa0329"
"1846","SMa0380"
"1847","SMa0466"
"1848","SMa0495"
"1849","SMa0538"
"1850","SMa0620"
"1851","SMa0677"
"1852","SMa0717"
"1853","SMa0738"
"1854","SMa0750"
"1855","SMa0878"
"1856","SMa0886"
"1857","SMa0964"
"1858","SMa0981"
"1859","SMa0990"
"1860","SMa1002"
"1861","SMa1005"
"1862","SMa1037"
"1863","SMa1067"
"1864","SMa1162"
"1865","SMa1174"
"1866","SMa1262"
"1867","SMa1298"
"1868","SMa1301"
"1869","SMa1375"
"1870","SMa1465"
"1871","SMa1471"
"1872","SMa1538"
"1873","SMa1541"
"1874","SMa1625"
"1875","SMa1718"
"1876","SMa1765"
"1877","SMa1769"
"1878","SMa1894"
"1879","SMa1990"
"1880","SMa2009"
"1881","SMa2012"
"1882","SMa2023"
"1883","SMa2099"
"1884","SMa2301"
"1885","SMa2389"
"1886","SMb20019"
"1887","SMb20020"
"1888","SMb20024"
"1889","SMb20029"
"1890","SMb20030"
"1891","SMb20043"
"1892","SMb20048"
"1893","SMb20060"
"1894","SMb20068"
"1895","SMb20088"
"1896","SMb20102"
"1897","SMb20115"
"1898","SMb20118"
"1899","SMb20148"
"1900","SMb20152"
"1901","SMb20163"
"1902","SMb20165"
"1903","SMb20166"
"1904","SMb20173"
"1905","SMb20179"
"1906","SMb20261"
"1907","SMb20262"
"1908","SMb20268"
"1909","SMb20275"
"1910","SMb20278"
"1911","SMb20286"
"1912","SMb20291"
"1913","SMb20294"
"1914","SMb20319"
"1915","SMb20323"
"1916","SMb20338"
"1917","SMb20386"
"1918","SMb20387"
"1919","SMb20389"
"1920","SMb20393"
"1921","SMb20416"
"1922","SMb20422"
"1923","SMb20423"
"1924","SMb20430"
"1925","SMb20447"
"1926","SMb20536"
"1927","SMb20574"
"1928","SMb20582"
"1929","SMb20595"
"1930","SMb20598"
"1931","SMb20599"
"1932","SMb20609"
"1933","SMb20625"
"1934","SMb20659"
"1935","SMb20671"
"1936","SMb20672"
"1937","SMb20675"
"1938","SMb20692"
"1939","SMb20717"
"1940","SMb20767"
"1941","SMb20816"
"1942","SMb20817"
"1943","SMb20826"
"1944","SMb20830"
"1945","SMb20865"
"1946","SMb20878"
"1947","SMb20891"
"1948","SMb20895"
"1949","SMb20898"
"1950","SMb20926"
"1951","SMb20929"
"1952","SMb20934"
"1953","SMb20940"
"1954","SMb20995"
"1955","SMb20996"
"1956","SMb21001"
"1957","SMb21004"
"1958","SMb21006"
"1959","SMb21013"
"1960","SMb21022"
"1961","SMb21028"
"1962","SMb21038"
"1963","SMb21040"
"1964","SMb21112"
"1965","SMb21129"
"1966","SMb21130"
"1967","SMb21171"
"1968","SMb21269"
"1969","SMb21275"
"1970","SMb21279"
"1971","SMb21297"
"1972","SMb21349"
"1973","SMb21369"
"1974","SMb21373"
"1975","SMb21377"
"1976","SMb21416"
"1977","SMb21417"
"1978","SMb21425"
"1979","SMb21430"
"1980","SMb21475"
"1981","SMb21495"
"1982","SMb21543"
"1983","SMb21545"
"1984","SMb21598"
"1985","SMb21602"
"1986","SMb21603"
"1987","SMb21671"
"1988","SMc00007"
"1989","SMc00008"
"1990","SMc00010"
"1991","SMc00013"
"1992","SMc00022"
"1993","SMc00026"
"1994","SMc00035"
"1995","SMc00043"
"1996","SMc00049"
"1997","SMc00072"
"1998","SMc00077"
"1999","SMc00078"
"2000","SMc00079"
"2001","SMc00088"
"2002","SMc00108"
"2003","SMc00114"
"2004","SMc00125"
"2005","SMc00133"
"2006","SMc00134"
"2007","SMc00136"
"2008","SMc00144"
"2009","SMc00149"
"2010","SMc00153"
"2011","SMc00154"
"2012","SMc00155"
"2013","SMc00165"
"2014","SMc00169"
"2015","SMc00180"
"2016","SMc00184"
"2017","SMc00188"
"2018","SMc00190"
"2019","SMc00193"
"2020","SMc00227"
"2021","SMc00231"
"2022","SMc00232"
"2023","SMc00235"
"2024","SMc00240"
"2025","SMc00272"
"2026","SMc00275"
"2027","SMc00279"
"2028","SMc00295"
"2029","SMc00322"
"2030","SMc00324"
"2031","SMc00326"
"2032","SMc00327"
"2033","SMc00328"
"2034","SMc00345"
"2035","SMc00349"
"2036","SMc00355"
"2037","SMc00356"
"2038","SMc00361"
"2039","SMc00371"
"2040","SMc00382"
"2041","SMc00394"
"2042","SMc00403"
"2043","SMc00407"
"2044","SMc00410"
"2045","SMc00411"
"2046","SMc00415"
"2047","SMc00422"
"2048","SMc00435"
"2049","SMc00462"
"2050","SMc00475"
"2051","SMc00480"
"2052","SMc00487"
"2053","SMc00488"
"2054","SMc00490"
"2055","SMc00491"
"2056","SMc00495"
"2057","SMc00508"
"2058","SMc00511"
"2059","SMc00521"
"2060","SMc00524"
"2061","SMc00528"
"2062","SMc00536"
"2063","SMc00538"
"2064","SMc00551"
"2065","SMc00557"
"2066","SMc00575"
"2067","SMc00576"
"2068","SMc00577"
"2069","SMc00580"
"2070","SMc00586"
"2071","SMc00596"
"2072","SMc00608"
"2073","SMc00614"
"2074","SMc00615"
"2075","SMc00622"
"2076","SMc00644"
"2077","SMc00647"
"2078","SMc00648"
"2079","SMc00649"
"2080","SMc00678"
"2081","SMc00690"
"2082","SMc00699"
"2083","SMc00710"
"2084","SMc00723"
"2085","SMc00724"
"2086","SMc00725"
"2087","SMc00728"
"2088","SMc00738"
"2089","SMc00740"
"2090","SMc00770"
"2091","SMc00785"
"2092","SMc00810"
"2093","SMc00811"
"2094","SMc00813"
"2095","SMc00817"
"2096","SMc00851"
"2097","SMc00852"
"2098","SMc00854"
"2099","SMc00867"
"2100","SMc00871"
"2101","SMc00873"
"2102","SMc00902"
"2103","SMc00906"
"2104","SMc00907"
"2105","SMc00910"
"2106","SMc00918"
"2107","SMc00932"
"2108","SMc00936"
"2109","SMc00941"
"2110","SMc00944"
"2111","SMc00948"
"2112","SMc00950"
"2113","SMc00957"
"2114","SMc00964"
"2115","SMc00973"
"2116","SMc00996"
"2117","SMc01008"
"2118","SMc01009"
"2119","SMc01018"
"2120","SMc01024"
"2121","SMc01027"
"2122","SMc01028"
"2123","SMc01051"
"2124","SMc01052"
"2125","SMc01096"
"2126","SMc01102"
"2127","SMc01112"
"2128","SMc01113"
"2129","SMc01115"
"2130","SMc01121"
"2131","SMc01125"
"2132","SMc01132"
"2133","SMc01140"
"2134","SMc01145"
"2135","SMc01155"
"2136","SMc01157"
"2137","SMc01167"
"2138","SMc01181"
"2139","SMc01185"
"2140","SMc01198"
"2141","SMc01206"
"2142","SMc01218"
"2143","SMc01219"
"2144","SMc01230"
"2145","SMc01231"
"2146","SMc01232"
"2147","SMc01239"
"2148","SMc01245"
"2149","SMc01258"
"2150","SMc01265"
"2151","SMc01270"
"2152","SMc01272"
"2153","SMc01304"
"2154","SMc01307"
"2155","SMc01325"
"2156","SMc01327"
"2157","SMc01330"
"2158","SMc01340"
"2159","SMc01342"
"2160","SMc01346"
"2161","SMc01349"
"2162","SMc01350"
"2163","SMc01352"
"2164","SMc01353"
"2165","SMc01359"
"2166","SMc01360"
"2167","SMc01361"
"2168","SMc01373"
"2169","SMc01375"
"2170","SMc01378"
"2171","SMc01379"
"2172","SMc01381"
"2173","SMc01407"
"2174","SMc01410"
"2175","SMc01412"
"2176","SMc01418"
"2177","SMc01449"
"2178","SMc01472"
"2179","SMc01494"
"2180","SMc01503"
"2181","SMc01522"
"2182","SMc01550"
"2183","SMc01567"
"2184","SMc01584"
"2185","SMc01591"
"2186","SMc01606"
"2187","SMc01650"
"2188","SMc01666"
"2189","SMc01669"
"2190","SMc01671"
"2191","SMc01711"
"2192","SMc01721"
"2193","SMc01722"
"2194","SMc01726"
"2195","SMc01731"
"2196","SMc01733"
"2197","SMc01740"
"2198","SMc01761"
"2199","SMc01766"
"2200","SMc01770"
"2201","SMc01771"
"2202","SMc01773"
"2203","SMc01777"
"2204","SMc01782"
"2205","SMc01783"
"2206","SMc01786"
"2207","SMc01788"
"2208","SMc01798"
"2209","SMc01844"
"2210","SMc01845"
"2211","SMc01850"
"2212","SMc01851"
"2213","SMc01852"
"2214","SMc01874"
"2215","SMc01878"
"2216","SMc01915"
"2217","SMc01917"
"2218","SMc01918"
"2219","SMc01919"
"2220","SMc01920"
"2221","SMc01921"
"2222","SMc01922"
"2223","SMc01923"
"2224","SMc01924"
"2225","SMc01925"
"2226","SMc01927"
"2227","SMc01934"
"2228","SMc01938"
"2229","SMc01971"
"2230","SMc01988"
"2231","SMc02031"
"2232","SMc02053"
"2233","SMc02055"
"2234","SMc02058"
"2235","SMc02059"
"2236","SMc02064"
"2237","SMc02072"
"2238","SMc02075"
"2239","SMc02080"
"2240","SMc02082"
"2241","SMc02083"
"2242","SMc02109"
"2243","SMc02117"
"2244","SMc02174"
"2245","SMc02183"
"2246","SMc02187"
"2247","SMc02202"
"2248","SMc02208"
"2249","SMc02230"
"2250","SMc02245"
"2251","SMc02265"
"2252","SMc02279"
"2253","SMc02282"
"2254","SMc02297"
"2255","SMc02304"
"2256","SMc02322"
"2257","SMc02370"
"2258","SMc02386"
"2259","SMc02392"
"2260","SMc02393"
"2261","SMc02408"
"2262","SMc02418"
"2263","SMc02434"
"2264","SMc02436"
"2265","SMc02437"
"2266","SMc02438"
"2267","SMc02441"
"2268","SMc02449"
"2269","SMc02450"
"2270","SMc02465"
"2271","SMc02482"
"2272","SMc02484"
"2273","SMc02487"
"2274","SMc02490"
"2275","SMc02491"
"2276","SMc02495"
"2277","SMc02499"
"2278","SMc02500"
"2279","SMc02501"
"2280","SMc02510"
"2281","SMc02522"
"2282","SMc02545"
"2283","SMc02578"
"2284","SMc02581"
"2285","SMc02589"
"2286","SMc02631"
"2287","SMc02635"
"2288","SMc02637"
"2289","SMc02644"
"2290","SMc02645"
"2291","SMc02683"
"2292","SMc02691"
"2293","SMc02693"
"2294","SMc02699"
"2295","SMc02703"
"2296","SMc02713"
"2297","SMc02716"
"2298","SMc02720"
"2299","SMc02733"
"2300","SMc02761"
"2301","SMc02765"
"2302","SMc02766"
"2303","SMc02786"
"2304","SMc02801"
"2305","SMc02803"
"2306","SMc02828"
"2307","SMc02832"
"2308","SMc02844"
"2309","SMc02846"
"2310","SMc02847"
"2311","SMc02858"
"2312","SMc02863"
"2313","SMc02881"
"2314","SMc02899"
"2315","SMc02901"
"2316","SMc02908"
"2317","SMc02914"
"2318","SMc02942"
"2319","SMc02981"
"2320","SMc03076"
"2321","SMc03090"
"2322","SMc03093"
"2323","SMc03103"
"2324","SMc03131"
"2325","SMc03146"
"2326","SMc03154"
"2327","SMc03155"
"2328","SMc03156"
"2329","SMc03158"
"2330","SMc03193"
"2331","SMc03200"
"2332","SMc03230"
"2333","SMc03237"
"2334","SMc03238"
"2335","SMc03268"
"2336","SMc03269"
"2337","SMc03746"
"2338","SMc03748"
"2339","SMc03754"
"2340","SMc03761"
"2341","SMc03765"
"2342","SMc03775"
"2343","SMc03776"
"2344","SMc03787"
"2345","SMc03818"
"2346","SMc03823"
"2347","SMc03829"
"2348","SMc03839"
"2349","SMc03845"
"2350","SMc03846"
"2351","SMc03860"
"2352","SMc03867"
"2353","SMc03868"
"2354","SMc03884"
"2355","SMc03890"
"2356","SMc03922"
"2357","SMc03931"
"2358","SMc03966"
"2359","SMc03978"
"2360","SMc04016"
"2361","SMc04024"
"2362","SMc04028"
"2363","SMc04029"
"2364","SMc04030"
"2365","SMc04046"
"2366","SMc04052"
"2367","SMc04056"
"2368","SMc04094"
"2369","SMc04108"
"2370","SMc04175"
"2371","SMc04210"
"2372","SMc04211"
"2373","SMc04213"
"2374","SMc04214"
"2375","SMc04216"
"2376","SMc04217"
"2377","SMc04221"
"2378","SMc04222"
"2379","SMc04240"
"2380","SMc04260"
"2381","SMc04261"
"2382","SMc04262"
"2383","SMc04264"
"2384","SMc04270"
"2385","SMc04273"
"2386","SMc04275"
"2387","SMc04285"
"2388","SMc04296"
"2389","SMc04334"
"2390","SMc04344"
"2391","SMc04345"
"2392","SMc04364"
"2393","SMc04389"
"2394","SMc04404"
"2395","SMc04410"
"2396","SMc04433"
"2397","SMc04450"
"2398","SMc04453"
"2399","SMc04454"
"2400","SMc_R0065"
"2401","SMc_R0070"
"2402","SMc_R0078"
